name,price,min_delivery_time,category,sku,is_avalilable
Just Cavalli Him EDT 60 ml spray,567,Не указано,Главная > Парфюмерия > Мужская парфюмерия > Roberto Cavalli > Just Cavalli Him EDT 60 ml spray,51142,Да
Just Cavalli I Love Him EDT 60 ml spray,565,Не указано,Главная > Парфюмерия > Мужская парфюмерия > Roberto Cavalli > Just Cavalli I Love Him EDT 60 ml spray,59225,Да
