name,price,min_delivery_time,category,sku,is_avalilable
La Perla J’Aime Les Fleurs TESTER EDT 100 ml spray,649,Не указано,Главная > Парфюмерия > Женская парфюмерия > La Perla > La Perla J’Aime Les Fleurs TESTER EDT 100 ml spray,55537,Да
La Perla J'Aime EDP 30 ml spray,537,Не указано,Главная > Парфюмерия > Женская парфюмерия > La Perla > La Perla J'Aime EDP 30 ml spray,52651,Да
