name,price,min_delivery_time,category,sku,is_avalilable
Black Intensitive Aoud EDP 120 ml spray,1773,Не указано,Главная > Парфюмерия > Нишевая парфюмерия > Для женщин > Mancera > Black Intensitive Aoud EDP 120 ml spray,70632,Да
Roseaoud & Musk EDP 120 ml spray,1773,Не указано,Главная > Парфюмерия > Нишевая парфюмерия > Для женщин > Mancera > Roseaoud & Musk EDP 120 ml spray,70634,Да
Roses Jasmine EDP 120 ml spray,1773,Не указано,Главная > Парфюмерия > Нишевая парфюмерия > Для женщин > Mancera > Roses Jasmine EDP 120 ml spray,70636,Да
