name,price,min_delivery_time,category,sku,is_avalilable
L`Instant De Guerlain Pour Homme TESTER EDT 125 ml spray,1095,Не указано,Главная > Парфюмерия > Мужская парфюмерия > Guerlain > L`Instant De Guerlain Pour Homme TESTER EDT 125 ml spray,51550,Да
L`Instant De Guerlain Pour Homme EDT 125 ml spray,1343,Не указано,Главная > Парфюмерия > Мужская парфюмерия > Guerlain > L`Instant De Guerlain Pour Homme EDT 125 ml spray,51547,Да
L`Instant De Guerlain Pour Homme EDT 75 ml spray,979,Не указано,Главная > Парфюмерия > Мужская парфюмерия > Guerlain > L`Instant De Guerlain Pour Homme EDT 75 ml spray,51549,Да
Habit Rouge L`Eau EDT 50 ml spray,905,Не указано,Главная > Парфюмерия > Мужская парфюмерия > Guerlain > Habit Rouge L`Eau EDT 50 ml spray,72648,Да
Vetiver TESTER EDT 100 ml spray,1213,Не указано,Главная > Парфюмерия > Мужская парфюмерия > Guerlain > Vetiver TESTER EDT 100 ml spray,63545,Да
Guerlain Homme L’Eau Boisee TESTER EDT 80 ml spray,1057,Не указано,Главная > Парфюмерия > Мужская парфюмерия > Guerlain > Guerlain Homme L’Eau Boisee TESTER EDT 80 ml spray,65433,Да
Guerlain Homme L’Eau Boisee EDT 80 ml spray,1277,Не указано,Главная > Парфюмерия > Мужская парфюмерия > Guerlain > Guerlain Homme L’Eau Boisee EDT 80 ml spray,65431,Да
Guerlain Homme Intense TESTER EDP 80 ml spray,1315,Не указано,Главная > Парфюмерия > Мужская парфюмерия > Guerlain > Guerlain Homme Intense TESTER EDP 80 ml spray,56529,Да
Guerlain Homme Intense EDP 50 ml spray,1125,Не указано,Главная > Парфюмерия > Мужская парфюмерия > Guerlain > Guerlain Homme Intense EDP 50 ml spray,56526,Да
Guerlain Homme EDT 50 ml spray,960,Не указано,Главная > Парфюмерия > Мужская парфюмерия > Guerlain > Guerlain Homme EDT 50 ml spray,53602,Да
