name,price,min_delivery_time,category,sku,is_avalilable
Love Passport Rosy Sky TESTER EDP 50 ml spray ,173,Не указано,Главная > Парфюмерия > Женская парфюмерия > Peynet > Love Passport Rosy Sky TESTER EDP 50 ml spray ,58298,Да
Love Passport a Bloom EDP 50 ml spray,225,Не указано,Главная > Парфюмерия > Женская парфюмерия > Peynet > Love Passport a Bloom EDP 50 ml spray,69340,Да
LOVE PASSPORT BLOOM EDP 30 ml spray,201,Не указано,Главная > Парфюмерия > Женская парфюмерия > Peynet > LOVE PASSPORT BLOOM EDP 30 ml spray,70437,Да
