name,price,min_delivery_time,category,sku,is_avalilable
Flora by Gucci Glorious Mandarin EDT 50 ml spray,947,Не указано,Главная > Парфюмерия > Женская парфюмерия > Gucci > Flora by Gucci Glorious Mandarin EDT 50 ml spray,75001,Да
Flora by Gucci Glorious Mandarin EDT 30 ml spray,775,Не указано,Главная > Парфюмерия > Женская парфюмерия > Gucci > Flora by Gucci Glorious Mandarin EDT 30 ml spray,75000,Да
Flora by Gucci Glamorous Magnolia EDT 100 ml spray,1389,Не указано,Главная > Парфюмерия > Женская парфюмерия > Gucci > Flora by Gucci Glamorous Magnolia EDT 100 ml spray,66070,Да
Flora by Gucci Glamorous Magnolia EDT 50 ml spray,963,Не указано,Главная > Парфюмерия > Женская парфюмерия > Gucci > Flora by Gucci Glamorous Magnolia EDT 50 ml spray,66072,Да
Flora by Gucci Glamorous Magnolia EDT 30 ml spray,767,Не указано,Главная > Парфюмерия > Женская парфюмерия > Gucci > Flora by Gucci Glamorous Magnolia EDT 30 ml spray,66073,Да
Flora By Gucci Generous Violet TESTER EDT 100 ml spray,977,Не указано,Главная > Парфюмерия > Женская парфюмерия > Gucci > Flora By Gucci Generous Violet TESTER EDT 100 ml spray,67589,Да
Flora By Gucci Generous Violet EDT 100 ml spray,1117,Не указано,Главная > Парфюмерия > Женская парфюмерия > Gucci > Flora By Gucci Generous Violet EDT 100 ml spray,67588,Да
Flora By Gucci Eau Fraiche TESTER EDT 75 ml spray,991,Не указано,Главная > Парфюмерия > Женская парфюмерия > Gucci > Flora By Gucci Eau Fraiche TESTER EDT 75 ml spray,62635,Да
Flora By Gucci Eau Fraiche EDT 50 ml spray,907,Не указано,Главная > Парфюмерия > Женская парфюмерия > Gucci > Flora By Gucci Eau Fraiche EDT 50 ml spray,62629,Да
Flora By Gucci Eau Fraiche EDT 30 ml spray,895,Не указано,Главная > Парфюмерия > Женская парфюмерия > Gucci > Flora By Gucci Eau Fraiche EDT 30 ml spray,62633,Да
GUCCI GUILTY INTENSE EDP mini 5 ml,191,Не указано,Главная > Парфюмерия > Женская парфюмерия > Gucci > GUCCI GUILTY INTENSE EDP mini 5 ml,74683,Да
Guilty TESTER EDT 75 ml spray,1087,Не указано,Главная > Парфюмерия > Женская парфюмерия > Gucci > Guilty TESTER EDT 75 ml spray,59343,Да
Guilty EDT 50 ml spray,979,Не указано,Главная > Парфюмерия > Женская парфюмерия > Gucci > Guilty EDT 50 ml spray,59337,Да
GUCCI BY GUCCI TESTER EDP 75 ml spray,1273,Не указано,Главная > Парфюмерия > Женская парфюмерия > Gucci > GUCCI BY GUCCI TESTER EDP 75 ml spray,66352,Да
Gucci By Gucci TESTER EDT 75 ml spray,1010,Не указано,Главная > Парфюмерия > Женская парфюмерия > Gucci > Gucci By Gucci TESTER EDT 75 ml spray,52502,Да
Gucci By Gucci EDT 50 ml spray,999,Не указано,Главная > Парфюмерия > Женская парфюмерия > Gucci > Gucci By Gucci EDT 50 ml spray,52499,Да
Gucci By Gucci EDT 30 ml spray,889,Не указано,Главная > Парфюмерия > Женская парфюмерия > Gucci > Gucci By Gucci EDT 30 ml spray,52496,Да
Gucci By Gucci EDP 30 ml spray,905,Не указано,Главная > Парфюмерия > Женская парфюмерия > Gucci > Gucci By Gucci EDP 30 ml spray,52494,Да
Gucci Rush EDT 50 ml spray,977,Не указано,Главная > Парфюмерия > Женская парфюмерия > Gucci > Gucci Rush EDT 50 ml spray,53053,Да
Gucci Rush EDT 30 ml spray,711,Не указано,Главная > Парфюмерия > Женская парфюмерия > Gucci > Gucci Rush EDT 30 ml spray,53055,Да
Flora By Gucci TESTER EDP 75 ml spray,1239,Не указано,Главная > Парфюмерия > Женская парфюмерия > Gucci > Flora By Gucci TESTER EDP 75 ml spray,56402,Да
Flora By Gucci EDP 75 ml spray,1389,Не указано,Главная > Парфюмерия > Женская парфюмерия > Gucci > Flora By Gucci EDP 75 ml spray,56401,Да
Flora By Gucci TESTER EDT 75 ml spray,985,Не указано,Главная > Парфюмерия > Женская парфюмерия > Gucci > Flora By Gucci TESTER EDT 75 ml spray,54998,Да
Flora By Gucci EDP 50 ml spray,1203,Не указано,Главная > Парфюмерия > Женская парфюмерия > Gucci > Flora By Gucci EDP 50 ml spray,56400,Да
Flora By Gucci EDT 50 ml spray,1079,Не указано,Главная > Парфюмерия > Женская парфюмерия > Gucci > Flora By Gucci EDT 50 ml spray,54997,Да
Flora By Gucci EDP 30 ml spray,863,Не указано,Главная > Парфюмерия > Женская парфюмерия > Gucci > Flora By Gucci EDP 30 ml spray,56399,Да
Flora By Gucci EDT 30 ml spray,889,Не указано,Главная > Парфюмерия > Женская парфюмерия > Gucci > Flora By Gucci EDT 30 ml spray,54995,Да
Flora By Gucci EDT mini 5 ml,209,Не указано,Главная > Парфюмерия > Женская парфюмерия > Gucci > Flora By Gucci EDT mini 5 ml,55004,Да
Gucci Eau De Parfum II EDP 50 ml spray (розовый),1095,Не указано,Главная > Парфюмерия > Женская парфюмерия > Gucci > Gucci Eau De Parfum II EDP 50 ml spray (розовый),49232,Да
Gucci Eau De Parfum II EDP 30 ml spray (розовый),819,Не указано,Главная > Парфюмерия > Женская парфюмерия > Gucci > Gucci Eau De Parfum II EDP 30 ml spray (розовый),49235,Да
Gucci Rush 2 EDT 75 ml spray,1325,Не указано,Главная > Парфюмерия > Женская парфюмерия > Gucci > Gucci Rush 2 EDT 75 ml spray,49273,Да
Gucci Rush 2 EDT 50 ml spray,977,Не указано,Главная > Парфюмерия > Женская парфюмерия > Gucci > Gucci Rush 2 EDT 50 ml spray,49268,Да
Gucci Rush 2 EDT 30 ml spray,699,Не указано,Главная > Парфюмерия > Женская парфюмерия > Gucci > Gucci Rush 2 EDT 30 ml spray,49270,Да
Envy Me EDT 100 ml spray,1355,Не указано,Главная > Парфюмерия > Женская парфюмерия > Gucci > Envy Me EDT 100 ml spray,49260,Да
Envy Me EDT 50 ml spray,1055,Не указано,Главная > Парфюмерия > Женская парфюмерия > Gucci > Envy Me EDT 50 ml spray,49253,Да
Envy Me EDT 30 ml spray,755,Не указано,Главная > Парфюмерия > Женская парфюмерия > Gucci > Envy Me EDT 30 ml spray,49254,Да
Guilty Stud Pour Femme TESTER EDT 50 ml spray,910,Не указано,Главная > Парфюмерия > Женская парфюмерия > Gucci > Guilty Stud Pour Femme TESTER EDT 50 ml spray,77752,Да
Flora By Gucci Gorgeous Gardenia EDT 100 ml spray,1403,Не указано,Главная > Парфюмерия > Женская парфюмерия > Gucci > Flora By Gucci Gorgeous Gardenia EDT 100 ml spray,66075,Да
Flora By Gucci Gorgeous Gardenia EDT 50 ml spray,1089,Не указано,Главная > Парфюмерия > Женская парфюмерия > Gucci > Flora By Gucci Gorgeous Gardenia EDT 50 ml spray,67596,Да
Flora By Gucci Gorgeous Gardenia EDT 30 ml spray,845,Не указано,Главная > Парфюмерия > Женская парфюмерия > Gucci > Flora By Gucci Gorgeous Gardenia EDT 30 ml spray,66074,Да
Gucci Premiere EDP 50 ml spray,1283,Не указано,Главная > Парфюмерия > Женская парфюмерия > Gucci > Gucci Premiere EDP 50 ml spray,70423,Да
Gucci Premiere EDP 30 ml spray,899,Не указано,Главная > Парфюмерия > Женская парфюмерия > Gucci > Gucci Premiere EDP 30 ml spray,67601,Да
Guilty Black Pour Femme EDT mini 5 ml,169,Не указано,Главная > Парфюмерия > Женская парфюмерия > Gucci > Guilty Black Pour Femme EDT mini 5 ml,74677,Да
