name,price,min_delivery_time,category,sku,is_avalilable
Amarante EDP 50 ml spray,531,Не указано,Главная > Парфюмерия > Женская парфюмерия > Louis Feraud > Amarante EDP 50 ml spray,70416,Да
Feraud Eau Des Sens Limited Edition EDP 75 ml spray,411,Не указано,Главная > Парфюмерия > Женская парфюмерия > Louis Feraud > Feraud Eau Des Sens Limited Edition EDP 75 ml spray,73427,Да
Feraud Eau Des Sens Limited Edition EDP 30 ml spray,209,Не указано,Главная > Парфюмерия > Женская парфюмерия > Louis Feraud > Feraud Eau Des Sens Limited Edition EDP 30 ml spray,67524,Да
Feraud Eau Des Sens TESTER EDP 75 ml spray,519,Не указано,Главная > Парфюмерия > Женская парфюмерия > Louis Feraud > Feraud Eau Des Sens TESTER EDP 75 ml spray,59309,Да
Feraud Eau Des Sens EDP 30 ml spray,363,Не указано,Главная > Парфюмерия > Женская парфюмерия > Louis Feraud > Feraud Eau Des Sens EDP 30 ml spray,59307,Да
Feraud Paris EDP 50 ml spray,699,Не указано,Главная > Парфюмерия > Женская парфюмерия > Louis Feraud > Feraud Paris EDP 50 ml spray,52609,Да
Feraud Parfum Des Sens EDP 75 ml spray,567,Не указано,Главная > Парфюмерия > Женская парфюмерия > Louis Feraud > Feraud Parfum Des Sens EDP 75 ml spray,54594,Да
Feraud Parfum Des Sens EDP 50 ml spray,447,Не указано,Главная > Парфюмерия > Женская парфюмерия > Louis Feraud > Feraud Parfum Des Sens EDP 50 ml spray,54590,Да
Feraud Parfum Des Sens EDP 30 ml spray,477,Не указано,Главная > Парфюмерия > Женская парфюмерия > Louis Feraud > Feraud Parfum Des Sens EDP 30 ml spray,54588,Да
Soleil De Jade EDP 50 ml spray,799,Не указано,Главная > Парфюмерия > Женская парфюмерия > Louis Feraud > Soleil De Jade EDP 50 ml spray,73367,Да
