name,price,min_delivery_time,category,sku,is_avalilable
Kenneth Cole Vintage Black Men EDT 100 ml spray,929,Не указано,Главная > Парфюмерия > Мужская парфюмерия > Kenneth Cole > Kenneth Cole Vintage Black Men EDT 100 ml spray,61347,Да
Kenneth Cole Black for Men EDT 100 ml spray,977,Не указано,Главная > Парфюмерия > Мужская парфюмерия > Kenneth Cole > Kenneth Cole Black for Men EDT 100 ml spray,56930,Да
Kenneth Cole Black for Men EDT 15 ml spray,539,Не указано,Главная > Парфюмерия > Мужская парфюмерия > Kenneth Cole > Kenneth Cole Black for Men EDT 15 ml spray,56928,Да
