name,price,min_delivery_time,category,sku,is_avalilable
Love Chloe Eau Florale EDT 50 ml spray,979,Не указано,Главная > Парфюмерия > Женская парфюмерия > Chloe > Love Chloe Eau Florale EDT 50 ml spray,69658,Да
See by Chloe Eau Fraiche EDT 50 ml spray,813,Не указано,Главная > Парфюмерия > Женская парфюмерия > Chloe > See by Chloe Eau Fraiche EDT 50 ml spray,77600,Да
See by Chloe Eau Fraiche EDT 30 ml spray,625,Не указано,Главная > Парфюмерия > Женская парфюмерия > Chloe > See by Chloe Eau Fraiche EDT 30 ml spray,77598,Да
Chloe Eau De Parfum TESTER EDP 75 ml spray,1325,Не указано,Главная > Парфюмерия > Женская парфюмерия > Chloe > Chloe Eau De Parfum TESTER EDP 75 ml spray,52864,Да
Chloe Eau De Parfum EDP 75 ml spray,1355,Не указано,Главная > Парфюмерия > Женская парфюмерия > Chloe > Chloe Eau De Parfum EDP 75 ml spray,52863,Да
Chloe Eau De Parfum EDP 50 ml spray,993,Не указано,Главная > Парфюмерия > Женская парфюмерия > Chloe > Chloe Eau De Parfum EDP 50 ml spray,52862,Да
Chloe Eau De Parfum EDP 30 ml spray,743,Не указано,Главная > Парфюмерия > Женская парфюмерия > Chloe > Chloe Eau De Parfum EDP 30 ml spray,52860,Да
Roses De Chloe EDT 30 ml spray,711,Не указано,Главная > Парфюмерия > Женская парфюмерия > Chloe > Roses De Chloe EDT 30 ml spray,76766,Да
Chloe Eau De Toilette TESTER EDT 75 ml spray,1025,Не указано,Главная > Парфюмерия > Женская парфюмерия > Chloe > Chloe Eau De Toilette TESTER EDT 75 ml spray,52882,Да
Chloe Eau De Toilette EDT 50 ml spray,823,Не указано,Главная > Парфюмерия > Женская парфюмерия > Chloe > Chloe Eau De Toilette EDT 50 ml spray,52865,Да
Chloe Eau De Toilette EDT 30 ml spray,629,Не указано,Главная > Парфюмерия > Женская парфюмерия > Chloe > Chloe Eau De Toilette EDT 30 ml spray,52875,Да
L'eau De Chloe EDT 100 ml spray,1337,Не указано,Главная > Парфюмерия > Женская парфюмерия > Chloe > L'eau De Chloe EDT 100 ml spray,65889,Да
L'eau De Chloe EDT 30 ml spray,785,Не указано,Главная > Парфюмерия > Женская парфюмерия > Chloe > L'eau De Chloe EDT 30 ml spray,65891,Да
Love Chloe EDP 30 ml spray,737,Не указано,Главная > Парфюмерия > Женская парфюмерия > Chloe > Love Chloe EDP 30 ml spray,60317,Да
Eau de Fleurs Neroli TESTER EDT 100 ml spray,1707,Не указано,Главная > Парфюмерия > Женская парфюмерия > Chloe > Eau de Fleurs Neroli TESTER EDT 100 ml spray,58277,Да
Chloe Eau De Parfum Intense (2009) EDP 50 ml spray,1109,Не указано,Главная > Парфюмерия > Женская парфюмерия > Chloe > Chloe Eau De Parfum Intense (2009) EDP 50 ml spray,56274,Да
See by Chloe EDP 30 ml spray,657,Не указано,Главная > Парфюмерия > Женская парфюмерия > Chloe > See by Chloe EDP 30 ml spray,73793,Да
