name,price,min_delivery_time,category,sku,is_avalilable
Live EDP 100 ml spray,711,Не указано,Главная > Парфюмерия > Женская парфюмерия > Jennifer Lopez > Live EDP 100 ml spray,49474,Да
Still TESTER EDP 100 ml spray,617,Не указано,Главная > Парфюмерия > Женская парфюмерия > Jennifer Lopez > Still TESTER EDP 100 ml spray,51725,Да
Still EDP 100 ml spray,723,Не указано,Главная > Парфюмерия > Женская парфюмерия > Jennifer Lopez > Still EDP 100 ml spray,49477,Да
Still EDP 30 ml spray,475,Не указано,Главная > Парфюмерия > Женская парфюмерия > Jennifer Lopez > Still EDP 30 ml spray,49475,Да
My Glow EDT 100 ml spray,1171,Не указано,Главная > Парфюмерия > Женская парфюмерия > Jennifer Lopez > My Glow EDT 100 ml spray,59999,Да
