name,price,min_delivery_time,category,sku,is_avalilable
Paco TESTER EDT 100 ml spray,807,Не указано,Главная > Парфюмерия > Мужская парфюмерия > Paco Rabanne > Paco TESTER EDT 100 ml spray,78471,Да
 Paco EDT 100 ml spray,889,Не указано,Главная > Парфюмерия > Мужская парфюмерия > Paco Rabanne >  Paco EDT 100 ml spray,60114,Да
1 Million EDT 100 ml spray,1061,Не указано,Главная > Парфюмерия > Мужская парфюмерия > Paco Rabanne > 1 Million EDT 100 ml spray,53563,Да
1 Million EDT 50 ml spray,743,Не указано,Главная > Парфюмерия > Мужская парфюмерия > Paco Rabanne > 1 Million EDT 50 ml spray,53561,Да
1 Million EDT vial 1.2 ml spray,33,Не указано,Главная > Парфюмерия > Мужская парфюмерия > Paco Rabanne > 1 Million EDT vial 1.2 ml spray,77135,Да
XS Pour Homme EDT 100 ml spray,1040,Не указано,Главная > Парфюмерия > Мужская парфюмерия > Paco Rabanne > XS Pour Homme EDT 100 ml spray,51101,Да
XS Pour Homme EDT 50 ml spray,635,Не указано,Главная > Парфюмерия > Мужская парфюмерия > Paco Rabanne > XS Pour Homme EDT 50 ml spray,51099,Да
XS Pour Homme EDT 30 ml spray,503,Не указано,Главная > Парфюмерия > Мужская парфюмерия > Paco Rabanne > XS Pour Homme EDT 30 ml spray,51102,Да
Ultraviolet Man EDT 100 ml spray,981,Не указано,Главная > Парфюмерия > Мужская парфюмерия > Paco Rabanne > Ultraviolet Man EDT 100 ml spray,51097,Да
Ultraviolet Man TESTER EDT 100 ml spray,899,Не указано,Главная > Парфюмерия > Мужская парфюмерия > Paco Rabanne > Ultraviolet Man TESTER EDT 100 ml spray,47949,Да
Ultraviolet Man EDT 50 ml spray,743,Не указано,Главная > Парфюмерия > Мужская парфюмерия > Paco Rabanne > Ultraviolet Man EDT 50 ml spray,51096,Да
Black XS Pour Homme TESTER EDT 100 ml spray,885,Не указано,Главная > Парфюмерия > Мужская парфюмерия > Paco Rabanne > Black XS Pour Homme TESTER EDT 100 ml spray,51936,Да
Black XS Pour Homme EDT 50 ml spray,677,Не указано,Главная > Парфюмерия > Мужская парфюмерия > Paco Rabanne > Black XS Pour Homme EDT 50 ml spray,51927,Да
1 Million Intense TESTER EDT 100 ml spray,1370,Не указано,Главная > Парфюмерия > Мужская парфюмерия > Paco Rabanne > 1 Million Intense TESTER EDT 100 ml spray,78731,Да
Black XS L'Exces TESTER EDT 100 ml spray,1257,Не указано,Главная > Парфюмерия > Мужская парфюмерия > Paco Rabanne > Black XS L'Exces TESTER EDT 100 ml spray,68990,Да
Invictus EDT 100 ml spray,1119,Не указано,Главная > Парфюмерия > Мужская парфюмерия > Paco Rabanne > Invictus EDT 100 ml spray,75096,Да
Invictus EDT 50 ml spray,743,Не указано,Главная > Парфюмерия > Мужская парфюмерия > Paco Rabanne > Invictus EDT 50 ml spray,75351,Да
"PACO INVICTUS EDT vial 1,5 ml",37,Не указано,"Главная > Парфюмерия > Мужская парфюмерия > Paco Rabanne > PACO INVICTUS EDT vial 1,5 ml",80260,Да
