name,price,min_delivery_time,category,sku,is_avalilable
Elie Saab Le Parfum EDP 30 ml spray,860,Не указано,Главная > Парфюмерия > Женская парфюмерия > Elie Saab > Elie Saab Le Parfum EDP 30 ml spray,70600,Да
Elie Saab Le Parfum Eau de Toilette TESTER EDT 90 ml spray,1149,Не указано,Главная > Парфюмерия > Женская парфюмерия > Elie Saab > Elie Saab Le Parfum Eau de Toilette TESTER EDT 90 ml spray,72591,Да
