name,price,min_delivery_time,category,sku,is_avalilable
DUNHILL DESIRE BLUE EDT 50 ml spray,589,Не указано,Главная > Парфюмерия > Мужская парфюмерия > Alfred Dunhill > DUNHILL DESIRE BLUE EDT 50 ml spray,66260,Да
Dunhill Black EDT 50 ml spray,733,Не указано,Главная > Парфюмерия > Мужская парфюмерия > Alfred Dunhill > Dunhill Black EDT 50 ml spray,58477,Да
Dunhill London EDT 50 ml spray,579,Не указано,Главная > Парфюмерия > Мужская парфюмерия > Alfred Dunhill > Dunhill London EDT 50 ml spray,53351,Да
Dunhill EDT 75 ml spray,943,Не указано,Главная > Парфюмерия > Мужская парфюмерия > Alfred Dunhill > Dunhill EDT 75 ml spray,50221,Да
Dunhill Fresh Men EDT 100 ml spray,737,Не указано,Главная > Парфюмерия > Мужская парфюмерия > Alfred Dunhill > Dunhill Fresh Men EDT 100 ml spray,51465,Да
