name,price,min_delivery_time,category,sku,is_avalilable
Five O’Clock Au Gingembre EDP 50 ml spray,1591,Не указано,Главная > Парфюмерия > Нишевая парфюмерия > Для мужчин > Serge Lutens > Five O’Clock Au Gingembre EDP 50 ml spray,66462,Да
L’Eau EDP 100 ml spray,1733,Не указано,Главная > Парфюмерия > Нишевая парфюмерия > Для мужчин > Serge Lutens > L’Eau EDP 100 ml spray,63226,Да
L’Eau Froide EDP 100 ml spray,1707,Не указано,Главная > Парфюмерия > Нишевая парфюмерия > Для мужчин > Serge Lutens > L’Eau Froide EDP 100 ml spray,70457,Да
L’Eau Froide EDP 50 ml spray,1210,Не указано,Главная > Парфюмерия > Нишевая парфюмерия > Для мужчин > Serge Lutens > L’Eau Froide EDP 50 ml spray,70459,Да
