name,price,min_delivery_time,category,sku,is_avalilable
True Religion For Men EDT 100 ml spray,1289,Не указано,Главная > Парфюмерия > Мужская парфюмерия > True Religion > True Religion For Men EDT 100 ml spray,58385,Да
True Religion For Men EDT 50 ml spray,945,Не указано,Главная > Парфюмерия > Мужская парфюмерия > True Religion > True Religion For Men EDT 50 ml spray,58387,Да
