name,price,min_delivery_time,category,sku,is_avalilable
Franck Olivier White Touch EDP 100 ml spray,437,Не указано,Главная > Парфюмерия > Женская парфюмерия > Franck Olivier > Franck Olivier White Touch EDP 100 ml spray,63439,Да
Franck Olivier White Touch EDP 50 ml spray,329,Не указано,Главная > Парфюмерия > Женская парфюмерия > Franck Olivier > Franck Olivier White Touch EDP 50 ml spray,63441,Да
Pearl's EDP 25 ml spray,229,Не указано,Главная > Парфюмерия > Женская парфюмерия > Franck Olivier > Pearl's EDP 25 ml spray,70417,Да
Franck Olivier Passion EDP 75 ml spray,369,Не указано,Главная > Парфюмерия > Женская парфюмерия > Franck Olivier > Franck Olivier Passion EDP 75 ml spray,58357,Да
Franck Olivier Passion EDP 50 ml spray,285,Не указано,Главная > Парфюмерия > Женская парфюмерия > Franck Olivier > Franck Olivier Passion EDP 50 ml spray,58356,Да
Franck Olivier Passion EDP 25 ml spray,231,Не указано,Главная > Парфюмерия > Женская парфюмерия > Franck Olivier > Franck Olivier Passion EDP 25 ml spray,58354,Да
"Franck Olivier Passion EDP mini 7,5 ml",87,Не указано,"Главная > Парфюмерия > Женская парфюмерия > Franck Olivier > Franck Olivier Passion EDP mini 7,5 ml",58358,Да
Franck Olivier EDP 75 ml spray (белый),397,Не указано,Главная > Парфюмерия > Женская парфюмерия > Franck Olivier > Franck Olivier EDP 75 ml spray (белый),53343,Да
Franck Olivier EDP 50 ml spray (белый),329,Не указано,Главная > Парфюмерия > Женская парфюмерия > Franck Olivier > Franck Olivier EDP 50 ml spray (белый),53342,Да
Franck Olivier EDP 25 ml spray (белый) ,185,Не указано,Главная > Парфюмерия > Женская парфюмерия > Franck Olivier > Franck Olivier EDP 25 ml spray (белый) ,53339,Да
"Franck Olivier EDP mini 7,5 ml (белый)",85,Не указано,"Главная > Парфюмерия > Женская парфюмерия > Franck Olivier > Franck Olivier EDP mini 7,5 ml (белый)",53341,Да
Bamboo For Women EDP 75 ml spray,507,Не указано,Главная > Парфюмерия > Женская парфюмерия > Franck Olivier > Bamboo For Women EDP 75 ml spray,67539,Да
Sunrise Franck Olivier Women EDT 75 ml spray,379,Не указано,Главная > Парфюмерия > Женская парфюмерия > Franck Olivier > Sunrise Franck Olivier Women EDT 75 ml spray,59699,Да
Sunrise Franck Olivier Women EDT 50 ml spray,420,Не указано,Главная > Парфюмерия > Женская парфюмерия > Franck Olivier > Sunrise Franck Olivier Women EDT 50 ml spray,59696,Да
Sunrise Franck Olivier Women EDT 30 ml spray,231,Не указано,Главная > Парфюмерия > Женская парфюмерия > Franck Olivier > Sunrise Franck Olivier Women EDT 30 ml spray,59694,Да
Franck Olivier Passion Extreme EDP 75 ml spray,499,Не указано,Главная > Парфюмерия > Женская парфюмерия > Franck Olivier > Franck Olivier Passion Extreme EDP 75 ml spray,56987,Да
Franck Olivier Passion Extreme  EDP 50 ml spray,395,Не указано,Главная > Парфюмерия > Женская парфюмерия > Franck Olivier > Franck Olivier Passion Extreme  EDP 50 ml spray,56989,Да
Franck Olivier Passion Extreme EDP 25 ml spray,277,Не указано,Главная > Парфюмерия > Женская парфюмерия > Franck Olivier > Franck Olivier Passion Extreme EDP 25 ml spray,56985,Да
"Franck Olivier Passion Extreme EDP mini 7,5 ml",115,Не указано,"Главная > Парфюмерия > Женская парфюмерия > Franck Olivier > Franck Olivier Passion Extreme EDP mini 7,5 ml",56988,Да
Franck Olivier Nature EDP 75 ml spray,359,Не указано,Главная > Парфюмерия > Женская парфюмерия > Franck Olivier > Franck Olivier Nature EDP 75 ml spray,55765,Да
Franck Olivier Nature EDP 50 ml spray,299,Не указано,Главная > Парфюмерия > Женская парфюмерия > Franck Olivier > Franck Olivier Nature EDP 50 ml spray,55763,Да
Franck Olivier Nature EDP 25 ml spray,235,Не указано,Главная > Парфюмерия > Женская парфюмерия > Franck Olivier > Franck Olivier Nature EDP 25 ml spray,55761,Да
"Franck Olivier Nature EDP mini 7,5 ml",93,Не указано,"Главная > Парфюмерия > Женская парфюмерия > Franck Olivier > Franck Olivier Nature EDP mini 7,5 ml",55764,Да
