name,price,min_delivery_time,category,sku,is_avalilable
Art Homme Masaki Matsushima TESTER EDT 80 ml spray,709,Не указано,Главная > Парфюмерия > Мужская парфюмерия > Masaki Matsushima > Art Homme Masaki Matsushima TESTER EDT 80 ml spray,61013,Да
Art Homme Masaki Matsushima  EDT 80 ml spray,763,Не указано,Главная > Парфюмерия > Мужская парфюмерия > Masaki Matsushima > Art Homme Masaki Matsushima  EDT 80 ml spray,61010,Да
Art Homme Masaki Matsushima  EDT 40 ml spray,525,Не указано,Главная > Парфюмерия > Мужская парфюмерия > Masaki Matsushima > Art Homme Masaki Matsushima  EDT 40 ml spray,61012,Да
Aqua Mat Homme EDT 80 ml spray,853,Не указано,Главная > Парфюмерия > Мужская парфюмерия > Masaki Matsushima > Aqua Mat Homme EDT 80 ml spray,53398,Да
Aqua Mat Homme EDT 40 ml spray,379,Не указано,Главная > Парфюмерия > Мужская парфюмерия > Masaki Matsushima > Aqua Mat Homme EDT 40 ml spray,53401,Да
M;0°С EDT 80 ml spray,973,Не указано,Главная > Парфюмерия > Мужская парфюмерия > Masaki Matsushima > M;0°С EDT 80 ml spray,56948,Да
M;0°С EDT 40 ml spray,535,Не указано,Главная > Парфюмерия > Мужская парфюмерия > Masaki Matsushima > M;0°С EDT 40 ml spray,56946,Да
AQUA PLATINUM EDT 80 ml spray,683,Не указано,Главная > Парфюмерия > Мужская парфюмерия > Masaki Matsushima > AQUA PLATINUM EDT 80 ml spray,67829,Да
Aqua Platinum EDT 40 ml spray,347,Не указано,Главная > Парфюмерия > Мужская парфюмерия > Masaki Matsushima > Aqua Platinum EDT 40 ml spray,59313,Да
Aqua Earth Homme TESTER EDT 80 ml spray,765,Не указано,Главная > Парфюмерия > Мужская парфюмерия > Masaki Matsushima > Aqua Earth Homme TESTER EDT 80 ml spray,75049,Да
Aqua Earth Homme EDT 80 ml spray,727,Не указано,Главная > Парфюмерия > Мужская парфюмерия > Masaki Matsushima > Aqua Earth Homme EDT 80 ml spray,75048,Да
Aqua Earth Homme EDT 40 ml spray,503,Не указано,Главная > Парфюмерия > Мужская парфюмерия > Masaki Matsushima > Aqua Earth Homme EDT 40 ml spray,75046,Да
