name,price,min_delivery_time,category,sku,is_avalilable
Adventure TESTER EDT 100 ml spray,885,Не указано,Главная > Парфюмерия > Мужская парфюмерия > Davidoff > Adventure TESTER EDT 100 ml spray,52545,Да
Hot Water TESTER EDT 110 ml spray,523,Не указано,Главная > Парфюмерия > Мужская парфюмерия > Davidoff > Hot Water TESTER EDT 110 ml spray,56294,Да
Hot Water EDT 110 ml spray,639,Не указано,Главная > Парфюмерия > Мужская парфюмерия > Davidoff > Hot Water EDT 110 ml spray,56291,Да
Cool Water Man EDT 125 ml spray,743,Не указано,Главная > Парфюмерия > Мужская парфюмерия > Davidoff > Cool Water Man EDT 125 ml spray,50585,Да
Cool Water Man EDT 75 ml spray,515,Не указано,Главная > Парфюмерия > Мужская парфюмерия > Davidoff > Cool Water Man EDT 75 ml spray,50586,Да
Cool Water Man EDT 40 ml spray,339,Не указано,Главная > Парфюмерия > Мужская парфюмерия > Davidoff > Cool Water Man EDT 40 ml spray,50583,Да
Zino Davidoff EDT 125 ml spray,699,Не указано,Главная > Парфюмерия > Мужская парфюмерия > Davidoff > Zino Davidoff EDT 125 ml spray,50649,Да
Silver Shadow TESTER EDT 100 ml spray,537,Не указано,Главная > Парфюмерия > Мужская парфюмерия > Davidoff > Silver Shadow TESTER EDT 100 ml spray,50644,Да
Silver Shadow EDT 100 ml spray,599,Не указано,Главная > Парфюмерия > Мужская парфюмерия > Davidoff > Silver Shadow EDT 100 ml spray,50642,Да
Champion Energy TESTER EDT 90 ml spray,613,Не указано,Главная > Парфюмерия > Мужская парфюмерия > Davidoff > Champion Energy TESTER EDT 90 ml spray,64164,Да
Champion Energy EDT 90 ml spray,749,Не указано,Главная > Парфюмерия > Мужская парфюмерия > Davidoff > Champion Energy EDT 90 ml spray,64163,Да
Champion Energy EDT 50 ml spray,599,Не указано,Главная > Парфюмерия > Мужская парфюмерия > Davidoff > Champion Energy EDT 50 ml spray,64162,Да
Champion Energy EDT 30 ml spray,297,Не указано,Главная > Парфюмерия > Мужская парфюмерия > Davidoff > Champion Energy EDT 30 ml spray,64160,Да
Champion TESTER EDT 90 ml spray,541,Не указано,Главная > Парфюмерия > Мужская парфюмерия > Davidoff > Champion TESTER EDT 90 ml spray,59487,Да
Silver Shadow Private EDT 50 ml spray,547,Не указано,Главная > Парфюмерия > Мужская парфюмерия > Davidoff > Silver Shadow Private EDT 50 ml spray,54569,Да
Echo EDT 100 ml spray,753,Не указано,Главная > Парфюмерия > Мужская парфюмерия > Davidoff > Echo EDT 100 ml spray,50615,Да
COOL WATER NIGHT DIVE EDT 125 ml spray,665,Не указано,Главная > Davidoff > COOL WATER NIGHT DIVE EDT 125 ml spray,78988,Да
The Game EDT 100 ml spray,793,Не указано,Главная > Парфюмерия > Мужская парфюмерия > Davidoff > The Game EDT 100 ml spray,76789,Да
The Game TESTER EDT 100 ml spray,503,Не указано,Главная > Парфюмерия > Мужская парфюмерия > Davidoff > The Game TESTER EDT 100 ml spray,74963,Да
The Game EDT 60 ml spray,579,Не указано,Главная > Парфюмерия > Мужская парфюмерия > Davidoff > The Game EDT 60 ml spray,76791,Да
The Game Intense EDT 100 ml spray,721,Не указано,Главная > Парфюмерия > Мужская парфюмерия > Davidoff > The Game Intense EDT 100 ml spray,78292,Да
The Game Intense EDT 60 ml spray,599,Не указано,Главная > Парфюмерия > Мужская парфюмерия > Davidoff > The Game Intense EDT 60 ml spray,77624,Да
The Game Intense EDT 40 ml spray,469,Не указано,Главная > Парфюмерия > Мужская парфюмерия > Davidoff > The Game Intense EDT 40 ml spray,78293,Да
