name,price,min_delivery_time,category,sku,is_avalilable
Cerruti 1881 pour homme TESTER EDT 100 ml spray,487,Не указано,Главная > Парфюмерия > Мужская парфюмерия > Nino Cerruti > Cerruti 1881 pour homme TESTER EDT 100 ml spray,56961,Да
Cerruti 1881 pour homme EDT 100 ml spray,567,Не указано,Главная > Парфюмерия > Мужская парфюмерия > Nino Cerruti > Cerruti 1881 pour homme EDT 100 ml spray,56960,Да
Cerruti Image Pour Homme EDT 100 ml spray,601,Не указано,Главная > Парфюмерия > Мужская парфюмерия > Nino Cerruti > Cerruti Image Pour Homme EDT 100 ml spray,56970,Да
L`Essence De Cerruti Pour Homme EDT 50 ml spray,503,Не указано,Главная > Парфюмерия > Мужская парфюмерия > Nino Cerruti > L`Essence De Cerruti Pour Homme EDT 50 ml spray,56975,Да
