name,price,min_delivery_time,category,sku,is_avalilable
Wall Street EDP 100 ml spray,5943,Не указано,Главная > Парфюмерия > Нишевая парфюмерия > Для мужчин > Bond № 9 > Wall Street EDP 100 ml spray,75782,Да
BOND № 9 Coney Island TESTER EDP 100 ml spray,3383,Не указано,Главная > Bond № 9 > BOND № 9 Coney Island TESTER EDP 100 ml spray,78237,Да
Gramercy Park EDP 50 ml spray,1087,Не указано,Главная > Парфюмерия > Нишевая парфюмерия > Для мужчин > Bond № 9 > Gramercy Park EDP 50 ml spray,67237,Да
Andy Warhol Montauk EDP 50 ml spray,1087,Не указано,Главная > Парфюмерия > Нишевая парфюмерия > Для мужчин > Bond № 9 > Andy Warhol Montauk EDP 50 ml spray,67222,Да
Riverside Drive EDP 50 ml spray,1087,Не указано,Главная > Парфюмерия > Нишевая парфюмерия > Для мужчин > Bond № 9 > Riverside Drive EDP 50 ml spray,67244,Да
