name,price,min_delivery_time,category,sku,is_avalilable
N. Ricci Le Paradise de Nina EDT 50 ml spray Limited Edition,1155,Не указано,Главная > Парфюмерия > Женская парфюмерия > Nina Ricci > N. Ricci Le Paradise de Nina EDT 50 ml spray Limited Edition,57585,Да
Nina Fantasy TESTER EDT 50 ml spray,895,Не указано,Главная > Парфюмерия > Женская парфюмерия > Nina Ricci > Nina Fantasy TESTER EDT 50 ml spray,72733,Да
Nina Fantasy EDT 50 ml spray Limited Edition,1063,Не указано,Главная > Парфюмерия > Женская парфюмерия > Nina Ricci > Nina Fantasy EDT 50 ml spray Limited Edition,67892,Да
Mademoiselle Ricci L'Eau TESTER EDT 50 ml spray,647,Не указано,Главная > Парфюмерия > Женская парфюмерия > Nina Ricci > Mademoiselle Ricci L'Eau TESTER EDT 50 ml spray,77012,Да
La Tentation de Nina EDT 50 ml spray,905,Не указано,Главная > Парфюмерия > Женская парфюмерия > Nina Ricci > La Tentation de Nina EDT 50 ml spray,77882,Да
N. Ricci Ricci Ricci EDP 80 ml spray,1151,Не указано,Главная > Парфюмерия > Женская парфюмерия > Nina Ricci > N. Ricci Ricci Ricci EDP 80 ml spray,55894,Да
N. Ricci Ricci Ricci EDP 50 ml spray,911,Не указано,Главная > Парфюмерия > Женская парфюмерия > Nina Ricci > N. Ricci Ricci Ricci EDP 50 ml spray,55892,Да
N. Ricci Nina L'Elixir TESTER EDP 80 ml spray,905,Не указано,Главная > Парфюмерия > Женская парфюмерия > Nina Ricci > N. Ricci Nina L'Elixir TESTER EDP 80 ml spray,60578,Да
N. Ricci Nina L'Elixir EDP 80 ml spray,1151,Не указано,Главная > Парфюмерия > Женская парфюмерия > Nina Ricci > N. Ricci Nina L'Elixir EDP 80 ml spray,60576,Да
N. Ricci Nina L'Elixir EDP 50 ml spray,929,Не указано,Главная > Парфюмерия > Женская парфюмерия > Nina Ricci > N. Ricci Nina L'Elixir EDP 50 ml spray,60575,Да
N. Ricci Nina L'Elixir EDP 30 ml spray,725,Не указано,Главная > Парфюмерия > Женская парфюмерия > Nina Ricci > N. Ricci Nina L'Elixir EDP 30 ml spray,60573,Да
"N. Ricci Nina L'Elixir EDP vial 1,2 ml",33,Не указано,"Главная > Парфюмерия > Женская парфюмерия > Nina Ricci > N. Ricci Nina L'Elixir EDP vial 1,2 ml",60580,Да
N.RICCI L`AIR DU TEMPS TESTER EDP 100 ml spray,855,Не указано,Главная > Парфюмерия > Женская парфюмерия > Nina Ricci > N.RICCI L`AIR DU TEMPS TESTER EDP 100 ml spray,67894,Да
N. Ricci L'Air du Temps TESTER EDT 100 ml spray,759,Не указано,Главная > Парфюмерия > Женская парфюмерия > Nina Ricci > N. Ricci L'Air du Temps TESTER EDT 100 ml spray,53816,Да
N. Ricci Love In Paris TESTER EDP 50 ml spray,647,Не указано,Главная > Парфюмерия > Женская парфюмерия > Nina Ricci > N. Ricci Love In Paris TESTER EDP 50 ml spray,47352,Да
N. Ricci Love In Paris EDP 50 ml spray,775,Не указано,Главная > Парфюмерия > Женская парфюмерия > Nina Ricci > N. Ricci Love In Paris EDP 50 ml spray,47342,Да
N. Ricci Love In Paris EDP 30 ml spray,537,Не указано,Главная > Парфюмерия > Женская парфюмерия > Nina Ricci > N. Ricci Love In Paris EDP 30 ml spray,47340,Да
N. Ricci Premier Jour EDP 100 ml spray,1025,Не указано,Главная > Парфюмерия > Женская парфюмерия > Nina Ricci > N. Ricci Premier Jour EDP 100 ml spray,49781,Да
N. Ricci Premier Jour TESTER EDP 100 ml spray,887,Не указано,Главная > Парфюмерия > Женская парфюмерия > Nina Ricci > N. Ricci Premier Jour TESTER EDP 100 ml spray,47924,Да
N. Ricci Premier Jour EDP 50 ml spray,791,Не указано,Главная > Парфюмерия > Женская парфюмерия > Nina Ricci > N. Ricci Premier Jour EDP 50 ml spray,49779,Да
N. Ricci Premier Jour EDP 30 ml spray,581,Не указано,Главная > Парфюмерия > Женская парфюмерия > Nina Ricci > N. Ricci Premier Jour EDP 30 ml spray,49780,Да
Nina (Apple) EDT 50 ml spray,807,Не указано,Главная > Парфюмерия > Женская парфюмерия > Nina Ricci > Nina (Apple) EDT 50 ml spray,49746,Да
Nina (Apple) EDT 30 ml spray ,537,Не указано,Главная > Парфюмерия > Женская парфюмерия > Nina Ricci > Nina (Apple) EDT 30 ml spray ,49745,Да
Mademoiselle Ricci TESTER EDP 80 ml spray,775,Не указано,Главная > Парфюмерия > Женская парфюмерия > Nina Ricci > Mademoiselle Ricci TESTER EDP 80 ml spray,71239,Да
Mademoiselle Ricci EDP 80 ml spray,930,Не указано,Главная > Парфюмерия > Женская парфюмерия > Nina Ricci > Mademoiselle Ricci EDP 80 ml spray,68989,Да
Mademoiselle Ricci EDP 50 ml spray,993,Не указано,Главная > Парфюмерия > Женская парфюмерия > Nina Ricci > Mademoiselle Ricci EDP 50 ml spray,68988,Да
Mademoiselle Ricci EDP 30 ml spray,533,Не указано,Главная > Парфюмерия > Женская парфюмерия > Nina Ricci > Mademoiselle Ricci EDP 30 ml spray,68987,Да
Mademoiselle Ricci EDP 4 ml,197,Не указано,Главная > Парфюмерия > Женская парфюмерия > Nina Ricci > Mademoiselle Ricci EDP 4 ml,75090,Да
Nina L’Eau TESTER EDT 80 ml spray,763,Не указано,Главная > Парфюмерия > Женская парфюмерия > Nina Ricci > Nina L’Eau TESTER EDT 80 ml spray,75089,Да
Nina L’Eau EDT 30 ml spray,520,Не указано,Главная > Парфюмерия > Женская парфюмерия > Nina Ricci > Nina L’Eau EDT 30 ml spray,72827,Да
