name,price,min_delivery_time,category,sku,is_avalilable
Patrizia EDP 100 ml spray,519,Не указано,Главная > Парфюмерия > Женская парфюмерия > Patrizia Pepe > Patrizia EDP 100 ml spray,63329,Да
PATRIZIA EDP 50 ml spray,347,Не указано,Главная > Парфюмерия > Женская парфюмерия > Patrizia Pepe > PATRIZIA EDP 50 ml spray,71336,Да
PEPE EDP 50 ml spray,347,Не указано,Главная > Парфюмерия > Женская парфюмерия > Patrizia Pepe > PEPE EDP 50 ml spray,71337,Да
