name,price,min_delivery_time,category,sku,is_avalilable
Blue Encens TESTER EDP 100 ml spray,1880,Не указано,Главная > Парфюмерия > Нишевая парфюмерия > Для мужчин > Comme Des Garcons > Blue Encens TESTER EDP 100 ml spray,77615,Да
Blue Encens EDP 100 ml spray,1263,Не указано,Главная > Парфюмерия > Нишевая парфюмерия > Для мужчин > Comme Des Garcons > Blue Encens EDP 100 ml spray,76783,Да
Blue Cedrat EDP 100 ml spray,1263,Не указано,Главная > Парфюмерия > Нишевая парфюмерия > Для мужчин > Comme Des Garcons > Blue Cedrat EDP 100 ml spray,76781,Да
Wonderwood EDP 50 ml spray,1119,Не указано,Главная > Парфюмерия > Нишевая парфюмерия > Для мужчин > Comme Des Garcons > Wonderwood EDP 50 ml spray,59327,Да
Comme Des Garcons 2 Man EDT 50 ml spray,981,Не указано,Главная > Comme Des Garcons > Comme Des Garcons 2 Man EDT 50 ml spray,54352,Да
COMME DES GARCONS №2 MAN EDT 25 ml spray,883,Не указано,Главная > Comme Des Garcons > COMME DES GARCONS №2 MAN EDT 25 ml spray,78966,Да
