name,price,min_delivery_time,category,sku,is_avalilable
Legend EDT 100 ml spray,743,Не указано,Главная > Парфюмерия > Мужская парфюмерия > Mont Blanc > Legend EDT 100 ml spray,62992,Да
Legend TESTER EDT 100 ml spray,695,Не указано,Главная > Парфюмерия > Мужская парфюмерия > Mont Blanc > Legend TESTER EDT 100 ml spray,62991,Да
Legend EDT 50 ml spray,537,Не указано,Главная > Парфюмерия > Мужская парфюмерия > Mont Blanc > Legend EDT 50 ml spray,62987,Да
Legend EDT 30 ml spray,365,Не указано,Главная > Парфюмерия > Мужская парфюмерия > Mont Blanc > Legend EDT 30 ml spray,62985,Да
"Legend EDT mini 4,5 ml",103,Не указано,"Главная > Парфюмерия > Мужская парфюмерия > Mont Blanc > Legend EDT mini 4,5 ml",62990,Да
Starwalker TESTER EDT 75 ml spray,819,Не указано,Главная > Парфюмерия > Мужская парфюмерия > Mont Blanc > Starwalker TESTER EDT 75 ml spray,52590,Да
Starwalker EDT 75 ml spray,679,Не указано,Главная > Парфюмерия > Мужская парфюмерия > Mont Blanc > Starwalker EDT 75 ml spray,52586,Да
Starwalker EDT 50 ml spray,537,Не указано,Главная > Парфюмерия > Мужская парфюмерия > Mont Blanc > Starwalker EDT 50 ml spray,52588,Да
Individuel Homme EDT 75 ml spray,753,Не указано,Главная > Парфюмерия > Мужская парфюмерия > Mont Blanc > Individuel Homme EDT 75 ml spray,51078,Да
Individuel Homme TESTER EDT 75 ml spray,657,Не указано,Главная > Парфюмерия > Мужская парфюмерия > Mont Blanc > Individuel Homme TESTER EDT 75 ml spray,51077,Да
Individuel Homme EDT 50 ml spray,523,Не указано,Главная > Парфюмерия > Мужская парфюмерия > Mont Blanc > Individuel Homme EDT 50 ml spray,51073,Да
Mont Blanc Presence EDT 75 ml spray ,799,Не указано,Главная > Парфюмерия > Мужская парфюмерия > Mont Blanc > Mont Blanc Presence EDT 75 ml spray ,51082,Да
Mont Blanc Presence EDT 50 ml spray ,537,Не указано,Главная > Парфюмерия > Мужская парфюмерия > Mont Blanc > Mont Blanc Presence EDT 50 ml spray ,51084,Да
Mont Blanc Presence Cool EDT 75 ml spray,753,Не указано,Главная > Парфюмерия > Мужская парфюмерия > Mont Blanc > Mont Blanc Presence Cool EDT 75 ml spray,51090,Да
MONT BLANC EMBLEM TESTER EDT 100 ml spray,759,Не указано,Главная > Парфюмерия > Мужская парфюмерия > Mont Blanc > MONT BLANC EMBLEM TESTER EDT 100 ml spray,80247,Да
Emblem EDT 100 ml spray,871,Не указано,Главная > Парфюмерия > Мужская парфюмерия > Mont Blanc > Emblem EDT 100 ml spray,78729,Да
Emblem EDT 60 ml spray,581,Не указано,Главная > Парфюмерия > Мужская парфюмерия > Mont Blanc > Emblem EDT 60 ml spray,78447,Да
Emblem EDT 40 ml spray,463,Не указано,Главная > Парфюмерия > Мужская парфюмерия > Mont Blanc > Emblem EDT 40 ml spray,77867,Да
"MONT BLANC EMBLEM EDTmini 4,5 ml",129,Не указано,"Главная > Парфюмерия > Мужская парфюмерия > Mont Blanc > MONT BLANC EMBLEM EDTmini 4,5 ml",80246,Да
MONT BLANC LEGEND INTENSE TESTER EDT 100 ml spray,679,Не указано,Главная > Mont Blanc > MONT BLANC LEGEND INTENSE TESTER EDT 100 ml spray,80248,Да
MONT BLANC LEGEND INTENSE EDT 50 ml spray,520,Не указано,Главная > Mont Blanc > MONT BLANC LEGEND INTENSE EDT 50 ml spray,79325,Да
