name,price,min_delivery_time,category,sku,is_avalilable
Opulent Shaik Pour Femme Parfum N33 Classic TESTER 40 ml spray,3339,Не указано,Главная > Парфюмерия > Нишевая парфюмерия > Для женщин > Designer Shaik > Opulent Shaik Pour Femme Parfum N33 Classic TESTER 40 ml spray,68840,Да
Opulent Shaik Pour Femme Parfum N33 40 ml spray,5139,Не указано,Главная > Парфюмерия > Нишевая парфюмерия > Для женщин > Designer Shaik > Opulent Shaik Pour Femme Parfum N33 40 ml spray,58431,Да
Chic Shaik N 30 TESTER 60 ml spray,2787,Не указано,Главная > Парфюмерия > Нишевая парфюмерия > Для женщин > Designer Shaik > Chic Shaik N 30 TESTER 60 ml spray,57493,Да
Chic Shaik N 30 60 ml spray,4295,Не указано,Главная > Парфюмерия > Нишевая парфюмерия > Для женщин > Designer Shaik > Chic Shaik N 30 60 ml spray,57491,Да
Chic Shaik Opulent Gold Edition PARFUM 40 ml spray,8217,Не указано,Главная > Парфюмерия > Нишевая парфюмерия > Для женщин > Designer Shaik > Chic Shaik Opulent Gold Edition PARFUM 40 ml spray,74549,Да
