name,price,min_delivery_time,category,sku,is_avalilable
Tom Ford For Men EDT 100 ml spray,2065,Не указано,Главная > Парфюмерия > Нишевая парфюмерия > Для мужчин > Tom Ford > Tom Ford For Men EDT 100 ml spray,56371,Да
Tuscan Leather EDP 50 ml spray,5657,Не указано,Главная > Парфюмерия > Нишевая парфюмерия > Для мужчин > Tom Ford > Tuscan Leather EDP 50 ml spray,70885,Да
Private Blend: Oud Wood EDP 50 ml spray,5657,Не указано,Главная > Парфюмерия > Нишевая парфюмерия > Для мужчин > Tom Ford > Private Blend: Oud Wood EDP 50 ml spray,72779,Да
