name,price,min_delivery_time,category,sku,is_avalilable
Dot EDP 50 ml spray,1055,Не указано,Главная > Парфюмерия > Женская парфюмерия > Marc Jacobs > Dot EDP 50 ml spray,69737,Да
Dot EDP 30 ml spray,647,Не указано,Главная > Парфюмерия > Женская парфюмерия > Marc Jacobs > Dot EDP 30 ml spray,69736,Да
Honey TESTER EDP 100 ml spray,960,Не указано,Главная > Парфюмерия > Женская парфюмерия > Marc Jacobs > Honey TESTER EDP 100 ml spray,77847,Да
Honey EDP 50 ml spray,679,Не указано,Главная > Парфюмерия > Женская парфюмерия > Marc Jacobs > Honey EDP 50 ml spray,77846,Да
Honey EDP 30 ml spray,535,Не указано,Главная > Парфюмерия > Женская парфюмерия > Marc Jacobs > Honey EDP 30 ml spray,77845,Да
Daisy Eau So Fresh EDT 75 ml spray,977,Не указано,Главная > Парфюмерия > Женская парфюмерия > Marc Jacobs > Daisy Eau So Fresh EDT 75 ml spray,63565,Да
Daisy EDT 50 ml spray,880,Не указано,Главная > Парфюмерия > Женская парфюмерия > Marc Jacobs > Daisy EDT 50 ml spray,53488,Да
Lola TESTER EDP 100 ml spray,1077,Не указано,Главная > Парфюмерия > Женская парфюмерия > Marc Jacobs > Lola TESTER EDP 100 ml spray,56863,Да
Lola EDP 50 ml spray,885,Не указано,Главная > Парфюмерия > Женская парфюмерия > Marc Jacobs > Lola EDP 50 ml spray,56855,Да
