name,price,min_delivery_time,category,sku,is_avalilable
Black XS Pour Homme НАБОР (2) EDT100+DEO150 spray,1537,Не указано,Главная > Парфюмерия > Парфюмерные наборы > Для мужчин > Paco Rabanne > Black XS Pour Homme НАБОР (2) EDT100+DEO150 spray,51944,Да
1 Million НАБОР (2) EDT100+S/G100,2025,Не указано,Главная > Парфюмерия > Парфюмерные наборы > Для мужчин > Paco Rabanne > 1 Million НАБОР (2) EDT100+S/G100,53564,Да
1 Million НАБОР (2) EDT100+DEO150,1493,Не указано,Главная > Парфюмерия > Парфюмерные наборы > Для мужчин > Paco Rabanne > 1 Million НАБОР (2) EDT100+DEO150,53577,Да
