name,price,min_delivery_time,category,sku,is_avalilable
Ed Hardy Born Wild For Men EDT 50 ml spray,503,Не указано,Главная > Парфюмерия > Мужская парфюмерия > Christian Audigier > Ed Hardy Born Wild For Men EDT 50 ml spray,75830,Да
Ed Hardy Born Wild For Men EDT 30 ml spray,335,Не указано,Главная > Парфюмерия > Мужская парфюмерия > Christian Audigier > Ed Hardy Born Wild For Men EDT 30 ml spray,75829,Да
Ed Hardy Hearts&Daggers For Him TESTER EDT 100 ml spray,581,Не указано,Главная > Парфюмерия > Мужская парфюмерия > Christian Audigier > Ed Hardy Hearts&Daggers For Him TESTER EDT 100 ml spray,63934,Да
Ed Hardy Hearts&Daggers For Him EDT 50 ml spray,503,Не указано,Главная > Парфюмерия > Мужская парфюмерия > Christian Audigier > Ed Hardy Hearts&Daggers For Him EDT 50 ml spray,69503,Да
Ed Hardy Hearts&Daggers For Him EDT 30 ml spray,335,Не указано,Главная > Парфюмерия > Мужская парфюмерия > Christian Audigier > Ed Hardy Hearts&Daggers For Him EDT 30 ml spray,75837,Да
Ed Hardy Love&Luck For Men EDT 100 ml spray,679,Не указано,Главная > Парфюмерия > Мужская парфюмерия > Christian Audigier > Ed Hardy Love&Luck For Men EDT 100 ml spray,62364,Да
Ed Hardy Love&Luck For Men EDT 30 ml spray,335,Не указано,Главная > Парфюмерия > Мужская парфюмерия > Christian Audigier > Ed Hardy Love&Luck For Men EDT 30 ml spray,75838,Да
Ed Hardy For Men EDT 100 ml spray,679,Не указано,Главная > Christian Audigier > Ed Hardy For Men EDT 100 ml spray,62361,Да
Ed Hardy For Men EDT 50 ml spray,503,Не указано,Главная > Christian Audigier > Ed Hardy For Men EDT 50 ml spray,69425,Да
