name,price,min_delivery_time,category,sku,is_avalilable
JOOP! POUR HOMME EDT 125 ml spray,799,Не указано,Главная > Парфюмерия > Мужская парфюмерия > Joop! > JOOP! POUR HOMME EDT 125 ml spray,69721,Да
Joop! Pour Homme TESTER EDT 125 ml spray,627,Не указано,Главная > Парфюмерия > Мужская парфюмерия > Joop! > Joop! Pour Homme TESTER EDT 125 ml spray,58436,Да
