name,price,min_delivery_time,category,sku,is_avalilable
In Red TESTER EDP 100 ml spray (красный),613,Не указано,Главная > Парфюмерия > Женская парфюмерия > Armand Basi > In Red TESTER EDP 100 ml spray (красный),47796,Да
In Red EDP 100 ml spray (красный),695,Не указано,Главная > Парфюмерия > Женская парфюмерия > Armand Basi > In Red EDP 100 ml spray (красный),47794,Да
In Red EDP 50 ml spray (красный),549,Не указано,Главная > Парфюмерия > Женская парфюмерия > Armand Basi > In Red EDP 50 ml spray (красный),47792,Да
In Red EDP 30 ml spray (красный),419,Не указано,Главная > Парфюмерия > Женская парфюмерия > Armand Basi > In Red EDP 30 ml spray (красный),47791,Да
In Red EDP vial 1.2 ml,33,Не указано,Главная > Парфюмерия > Женская парфюмерия > Armand Basi > In Red EDP vial 1.2 ml,47808,Да
Rose Glacee TESTER EDT 100 ml spray,437,Не указано,Главная > Парфюмерия > Женская парфюмерия > Armand Basi > Rose Glacee TESTER EDT 100 ml spray,67210,Да
Rose Glacee EDT 50 ml spray,520,Не указано,Главная > Парфюмерия > Женская парфюмерия > Armand Basi > Rose Glacee EDT 50 ml spray,65032,Да
Rose Glacee EDT 30 ml spray,393,Не указано,Главная > Парфюмерия > Женская парфюмерия > Armand Basi > Rose Glacee EDT 30 ml spray,65031,Да
Sensual Red TESTER EDT 100 ml spray,535,Не указано,Главная > Парфюмерия > Женская парфюмерия > Armand Basi > Sensual Red TESTER EDT 100 ml spray,56204,Да
Sensual Red EDT 100 ml spray,689,Не указано,Главная > Парфюмерия > Женская парфюмерия > Armand Basi > Sensual Red EDT 100 ml spray,56200,Да
Sensual Red EDT 50 ml spray,487,Не указано,Главная > Парфюмерия > Женская парфюмерия > Armand Basi > Sensual Red EDT 50 ml spray,56202,Да
Sensual Red EDT 30 ml spray,359,Не указано,Главная > Парфюмерия > Женская парфюмерия > Armand Basi > Sensual Red EDT 30 ml spray,56203,Да
In Red TESTER EDT 100 ml spray,427,Не указано,Главная > Парфюмерия > Женская парфюмерия > Armand Basi > In Red TESTER EDT 100 ml spray,47795,Да
In Red EDT 100 ml spray,617,Не указано,Главная > Парфюмерия > Женская парфюмерия > Armand Basi > In Red EDT 100 ml spray,47786,Да
In Red EDT 50 ml spray,503,Не указано,Главная > Парфюмерия > Женская парфюмерия > Armand Basi > In Red EDT 50 ml spray,47787,Да
In Red EDT 30 ml spray,399,Не указано,Главная > Парфюмерия > Женская парфюмерия > Armand Basi > In Red EDT 30 ml spray,47783,Да
In Red EDT vial 1.2 ml,27,Не указано,Главная > Парфюмерия > Женская парфюмерия > Armand Basi > In Red EDT vial 1.2 ml,47809,Да
Happy In Red EDT 100 ml spray,645,Не указано,Главная > Парфюмерия > Женская парфюмерия > Armand Basi > Happy In Red EDT 100 ml spray,71115,Да
Happy In Red EDT 50 ml spray,497,Не указано,Главная > Парфюмерия > Женская парфюмерия > Armand Basi > Happy In Red EDT 50 ml spray,71405,Да
Happy In Red EDT 30 ml spray,353,Не указано,Главная > Парфюмерия > Женская парфюмерия > Armand Basi > Happy In Red EDT 30 ml spray,71266,Да
Rose Lumiere EDT 50 ml spray,520,Не указано,Главная > Парфюмерия > Женская парфюмерия > Armand Basi > Rose Lumiere EDT 50 ml spray,77498,Да
Rose Lumiere EDT 30 ml spray,425,Не указано,Главная > Парфюмерия > Женская парфюмерия > Armand Basi > Rose Lumiere EDT 30 ml spray,77497,Да
