name,price,min_delivery_time,category,sku,is_avalilable
Valentino Uomo TESTER EDT 100 ml spray,993,Не указано,Главная > Парфюмерия > Мужская парфюмерия > Valentino > Valentino Uomo TESTER EDT 100 ml spray,77965,Да
Valentino Uomo EDT 50 ml spray,721,Не указано,Главная > Парфюмерия > Мужская парфюмерия > Valentino > Valentino Uomo EDT 50 ml spray,77963,Да
"VALENTINO UOMO EDT vial 1,5 ml",37,Не указано,"Главная > Парфюмерия > Мужская парфюмерия > Valentino > VALENTINO UOMO EDT vial 1,5 ml",80278,Да
