name,price,min_delivery_time,category,sku,is_avalilable
OFRESIA EDT 100 ml spray,1589,Не указано,Главная > Парфюмерия > Нишевая парфюмерия > Для женщин > Diptyque > OFRESIA EDT 100 ml spray,77641,Да
Ofresia EDT 50 ml spray,1279,Не указано,Главная > Парфюмерия > Нишевая парфюмерия > Для женщин > Diptyque > Ofresia EDT 50 ml spray,73834,Да
Olene EDT 100 ml spray,1589,Не указано,Главная > Парфюмерия > Нишевая парфюмерия > Для женщин > Diptyque > Olene EDT 100 ml spray,73836,Да
Philosykos EDT 50 ml spray,1315,Не указано,Главная > Парфюмерия > Нишевая парфюмерия > Для женщин > Diptyque > Philosykos EDT 50 ml spray,66313,Да
