name,price,min_delivery_time,category,sku,is_avalilable
JOVOY LA LITURGIE des HEURES EDP 100 ml spray,2497,Не указано,Главная > Парфюмерия > Нишевая парфюмерия > Для мужчин > Jovoy Paris > JOVOY LA LITURGIE des HEURES EDP 100 ml spray,78387,Да
La Liturgie des Heures EDP 50 ml spray,1669,Не указано,Главная > Парфюмерия > Нишевая парфюмерия > Для мужчин > Jovoy Paris > La Liturgie des Heures EDP 50 ml spray,72383,Да
L’Enfant Terrible EDP 100 ml spray,2497,Не указано,Главная > Парфюмерия > Нишевая парфюмерия > Для мужчин > Jovoy Paris > L’Enfant Terrible EDP 100 ml spray,75032,Да
Les Jeux Sont Faits EDP 50 ml spray,2111,Не указано,Главная > Парфюмерия > Нишевая парфюмерия > Для мужчин > Jovoy Paris > Les Jeux Sont Faits EDP 50 ml spray,74851,Да
