name,price,min_delivery_time,category,sku,is_avalilable
"Terre d`Hermes Eau De Toilette НАБОР (3) EDT100+S/G40+mini 12,5",2009,Не указано,"Главная > Парфюмерия > Парфюмерные наборы > Для мужчин > Hermes > Terre d`Hermes Eau De Toilette НАБОР (3) EDT100+S/G40+mini 12,5",50850,Да
"Terre d`Hermes Eau De Toilette НАБОР (3) EDT100+AFSH BALM40+mini EDT 12,5 ml",2245,Не указано,"Главная > Парфюмерия > Парфюмерные наборы > Для мужчин > Hermes > Terre d`Hermes Eau De Toilette НАБОР (3) EDT100+AFSH BALM40+mini EDT 12,5 ml",75014,Да
