name,price,min_delivery_time,category,sku,is_avalilable
AMOUAGE CIEL WOMAN TESTER CREAM 200 ml,2005,Не указано,Главная > Amouage > AMOUAGE CIEL WOMAN TESTER CREAM 200 ml,80118,Да
Jubilation 25 for Women EDP 100 ml spray,5657,Не указано,Главная > Парфюмерия > Нишевая парфюмерия > Для женщин > Amouage > Jubilation 25 for Women EDP 100 ml spray,60955,Да
Jubilation 25 for Women TESTER EDP 100 ml spray,4237,Не указано,Главная > Парфюмерия > Нишевая парфюмерия > Для женщин > Amouage > Jubilation 25 for Women TESTER EDP 100 ml spray,60952,Да
Dia Woman TESTER EDP 100 ml spray,3775,Не указано,Главная > Парфюмерия > Нишевая парфюмерия > Для женщин > Amouage > Dia Woman TESTER EDP 100 ml spray,61835,Да
Reflection Woman EDP 100 ml spray,3980,Не указано,Главная > Парфюмерия > Нишевая парфюмерия > Для женщин > Amouage > Reflection Woman EDP 100 ml spray,60972,Да
Reflection Woman EDP 50 ml spray,3639,Не указано,Главная > Парфюмерия > Нишевая парфюмерия > Для женщин > Amouage > Reflection Woman EDP 50 ml spray,60969,Да
Ubar Woman EDP 100 ml spray,5089,Не указано,Главная > Парфюмерия > Нишевая парфюмерия > Для женщин > Amouage > Ubar Woman EDP 100 ml spray,70803,Да
Ubar Woman TESTER EDP 100 ml spray,3697,Не указано,Главная > Парфюмерия > Нишевая парфюмерия > Для женщин > Amouage > Ubar Woman TESTER EDP 100 ml spray,60978,Да
Ubar Woman EDP 50 ml spray,3193,Не указано,Главная > Парфюмерия > Нишевая парфюмерия > Для женщин > Amouage > Ubar Woman EDP 50 ml spray,60976,Да
Amouage Lyric Woman EDP 100 ml spray,5373,Не указано,Главная > Парфюмерия > Нишевая парфюмерия > Для женщин > Amouage > Amouage Lyric Woman EDP 100 ml spray,60934,Да
Amouage Lyric Woman TESTER EDP 100 ml spray,4237,Не указано,Главная > Парфюмерия > Нишевая парфюмерия > Для женщин > Amouage > Amouage Lyric Woman TESTER EDP 100 ml spray,60931,Да
Amouage Lyric Woman EDP 50 ml spray,3485,Не указано,Главная > Парфюмерия > Нишевая парфюмерия > Для женщин > Amouage > Amouage Lyric Woman EDP 50 ml spray,60933,Да
AMOUAGE LIBRARY COLLECTION OPUS IV TESTER EDP 100 ml spray,4789,Не указано,Главная > Amouage > AMOUAGE LIBRARY COLLECTION OPUS IV TESTER EDP 100 ml spray,80123,Да
Library Collection Opus I EDP 100 ml spray,8080,Не указано,Главная > Amouage > Library Collection Opus I EDP 100 ml spray,62842,Да
Gold Woman TESTER EDP 100 ml spray,3775,Не указано,Главная > Парфюмерия > Нишевая парфюмерия > Для женщин > Amouage > Gold Woman TESTER EDP 100 ml spray,69448,Да
Gold Woman EDP 100 ml spray,4620,Не указано,Главная > Парфюмерия > Нишевая парфюмерия > Для женщин > Amouage > Gold Woman EDP 100 ml spray,62838,Да
Gold Woman EDT 50 ml spray,4939,Не указано,Главная > Парфюмерия > Нишевая парфюмерия > Для женщин > Amouage > Gold Woman EDT 50 ml spray,62841,Да
Gold Woman EDP 50 ml spray,5895,Не указано,Главная > Парфюмерия > Нишевая парфюмерия > Для женщин > Amouage > Gold Woman EDP 50 ml spray,62840,Да
AMOUAGE INTERLUDE WOMAN EDP 50 ml spray,3485,Не указано,Главная > Amouage > AMOUAGE INTERLUDE WOMAN EDP 50 ml spray,80121,Да
