name,price,min_delivery_time,category,sku,is_avalilable
Uomo Trussardi 2011 EDT 100 ml spray,963,Не указано,Главная > Парфюмерия > Мужская парфюмерия > Trussardi > Uomo Trussardi 2011 EDT 100 ml spray,69613,Да
Uomo Trussardi 2011 TESTER EDT 100 ml spray,823,Не указано,Главная > Парфюмерия > Мужская парфюмерия > Trussardi > Uomo Trussardi 2011 TESTER EDT 100 ml spray,68013,Да
Uomo Trussardi 2011 EDT 50 ml spray,709,Не указано,Главная > Парфюмерия > Мужская парфюмерия > Trussardi > Uomo Trussardi 2011 EDT 50 ml spray,69017,Да
Uomo Trussardi 2011 EDT 30 ml spray,597,Не указано,Главная > Парфюмерия > Мужская парфюмерия > Trussardi > Uomo Trussardi 2011 EDT 30 ml spray,66475,Да
My Land EDT 100 ml spray,1009,Не указано,Главная > Парфюмерия > Мужская парфюмерия > Trussardi > My Land EDT 100 ml spray,71822,Да
My Land EDT 30 ml spray,549,Не указано,Главная > Парфюмерия > Мужская парфюмерия > Trussardi > My Land EDT 30 ml spray,69781,Да
TRUSSARDI UOMO TESTER EDT 100 ml spray,823,Не указано,Главная > Парфюмерия > Мужская парфюмерия > Trussardi > TRUSSARDI UOMO TESTER EDT 100 ml spray,68014,Да
A Way For Him TESTER EDT 100 ml spray,727,Не указано,Главная > Парфюмерия > Мужская парфюмерия > Trussardi > A Way For Him TESTER EDT 100 ml spray,79575,Да
Trussardi Black Extreme TESTER EDT 100 ml spray,775,Не указано,Главная > Парфюмерия > Мужская парфюмерия > Trussardi > Trussardi Black Extreme TESTER EDT 100 ml spray,79579,Да
Trussardi Black Extreme EDT 100 ml spray,947,Не указано,Главная > Парфюмерия > Мужская парфюмерия > Trussardi > Trussardi Black Extreme EDT 100 ml spray,79576,Да
Trussardi Black Extreme EDT 50 ml spray,710,Не указано,Главная > Парфюмерия > Мужская парфюмерия > Trussardi > Trussardi Black Extreme EDT 50 ml spray,79700,Да
Trussardi Black Extreme EDT 30 ml spray,499,Не указано,Главная > Парфюмерия > Мужская парфюмерия > Trussardi > Trussardi Black Extreme EDT 30 ml spray,79578,Да
