name,price,min_delivery_time,category,sku,is_avalilable
Narciso Rodriguez For Her Eau De Parfum (чёрный) TESTER EDP 100 ml spray,1559,Не указано,Главная > Парфюмерия > Женская парфюмерия > Narciso Rodriguez > Narciso Rodriguez For Her Eau De Parfum (чёрный) TESTER EDP 100 ml spray,47339,Да
Narciso Rodriguez For Her Eau De Parfum (чёрный) EDP 50 ml spray,1363,Не указано,Главная > Парфюмерия > Женская парфюмерия > Narciso Rodriguez > Narciso Rodriguez For Her Eau De Parfum (чёрный) EDP 50 ml spray,47317,Да
Narciso Rodriguez For Her Eau De Parfum (чёрный) EDP 30 ml spray,889,Не указано,Главная > Парфюмерия > Женская парфюмерия > Narciso Rodriguez > Narciso Rodriguez For Her Eau De Parfum (чёрный) EDP 30 ml spray,47336,Да
Essence Eau de Musc  TESTER EDT 125 ml spray,1307,Не указано,Главная > Парфюмерия > Женская парфюмерия > Narciso Rodriguez > Essence Eau de Musc  TESTER EDT 125 ml spray,67886,Да
Narciso Rodriguez Essence EDP 50 ml spray,1239,Не указано,Главная > Парфюмерия > Женская парфюмерия > Narciso Rodriguez > Narciso Rodriguez Essence EDP 50 ml spray,54283,Да
ESSENCE EDP 30 ml spray,889,Не указано,Главная > Парфюмерия > Женская парфюмерия > Narciso Rodriguez > ESSENCE EDP 30 ml spray,71724,Да
Narciso Rodriguez For Her Eau De Toilette TESTER EDT 100 ml spray,1473,Не указано,Главная > Парфюмерия > Женская парфюмерия > Narciso Rodriguez > Narciso Rodriguez For Her Eau De Toilette TESTER EDT 100 ml spray,47338,Да
Narciso Rodriguez For Her Eau De Toilette EDT 100 ml spray,1625,Не указано,Главная > Парфюмерия > Женская парфюмерия > Narciso Rodriguez > Narciso Rodriguez For Her Eau De Toilette EDT 100 ml spray,47315,Да
Narciso Rodriguez For Her Eau De Toilette EDT 50 ml spray,1370,Не указано,Главная > Парфюмерия > Женская парфюмерия > Narciso Rodriguez > Narciso Rodriguez For Her Eau De Toilette EDT 50 ml spray,47316,Да
For Her Eau de Toilette Delicate Limited Edition EDT 125 ml spray,1750,Не указано,Главная > Парфюмерия > Женская парфюмерия > Narciso Rodriguez > For Her Eau de Toilette Delicate Limited Edition EDT 125 ml spray,71732,Да
Narciso Rodriguez For Her Musc Collection TESTER EDP 100 ml spray intense,1419,Не указано,Главная > Парфюмерия > Женская парфюмерия > Narciso Rodriguez > Narciso Rodriguez For Her Musc Collection TESTER EDP 100 ml spray intense,59088,Да
Narciso Rodriguez For Her Musc Collection EDP 50 ml spray Intense ,1165,Не указано,Главная > Парфюмерия > Женская парфюмерия > Narciso Rodriguez > Narciso Rodriguez For Her Musc Collection EDP 50 ml spray Intense ,59085,Да
L’Eau For Her TESTER EDT 100 ml spray,1119,Не указано,Главная > Парфюмерия > Женская парфюмерия > Narciso Rodriguez > L’Eau For Her TESTER EDT 100 ml spray,71723,Да
