name,price,min_delivery_time,category,sku,is_avalilable
Charriol Pour Homme TESTER EDP 100 ml spray,825,Не указано,Главная > Парфюмерия > Мужская парфюмерия > Charriol > Charriol Pour Homme TESTER EDP 100 ml spray,59962,Да
Charriol Pour Homme EDP 100 ml spray,913,Не указано,Главная > Парфюмерия > Мужская парфюмерия > Charriol > Charriol Pour Homme EDP 100 ml spray,59959,Да
Charriol Pour Homme EDP 50 ml spray,725,Не указано,Главная > Парфюмерия > Мужская парфюмерия > Charriol > Charriol Pour Homme EDP 50 ml spray,59961,Да
Charriol Pour Homme Eau De Toilette EDT 100 ml spray,899,Не указано,Главная > Парфюмерия > Мужская парфюмерия > Charriol > Charriol Pour Homme Eau De Toilette EDT 100 ml spray,59953,Да
Charriol Pour Homme Eau De Toilette EDT 50 ml spray,699,Не указано,Главная > Парфюмерия > Мужская парфюмерия > Charriol > Charriol Pour Homme Eau De Toilette EDT 50 ml spray,59955,Да
Charriol Pour Homme Eau De Toilette EDT mini 5 ml,145,Не указано,Главная > Парфюмерия > Мужская парфюмерия > Charriol > Charriol Pour Homme Eau De Toilette EDT mini 5 ml,59956,Да
"CHARRIOL POUR HOMME EDP vial 1,7 ml spray",43,Не указано,"Главная > Парфюмерия > Мужская парфюмерия > Charriol > CHARRIOL POUR HOMME EDP vial 1,7 ml spray",72003,Да
"Charriol Pour Homme Eau De Toilette EDT vial 1,7 ml spray",43,Не указано,"Главная > Парфюмерия > Мужская парфюмерия > Charriol > Charriol Pour Homme Eau De Toilette EDT vial 1,7 ml spray",59958,Да
Royal White TESTER EDP 100 ml spray,823,Не указано,Главная > Парфюмерия > Мужская парфюмерия > Charriol > Royal White TESTER EDP 100 ml spray,72547,Да
Royal White EDP 100 ml spray,905,Не указано,Главная > Парфюмерия > Мужская парфюмерия > Charriol > Royal White EDP 100 ml spray,72544,Да
"Royal White EDP vial 1,7 ml",49,Не указано,"Главная > Парфюмерия > Мужская парфюмерия > Charriol > Royal White EDP vial 1,7 ml",72546,Да
Royal Gold Eau De Toilette Intense Pour Homme TESTER EDT 100 ml spray,823,Не указано,Главная > Парфюмерия > Мужская парфюмерия > Charriol > Royal Gold Eau De Toilette Intense Pour Homme TESTER EDT 100 ml spray,63120,Да
Royal Gold Eau De Toilette Intense Pour Homme EDT 100 ml spray,1009,Не указано,Главная > Парфюмерия > Мужская парфюмерия > Charriol > Royal Gold Eau De Toilette Intense Pour Homme EDT 100 ml spray,63118,Да
"Royal Gold Eau De Toilette Intense Pour Homme EDT vial 1,7 ml",49,Не указано,"Главная > Парфюмерия > Мужская парфюмерия > Charriol > Royal Gold Eau De Toilette Intense Pour Homme EDT vial 1,7 ml",72541,Да
Royal Platinum TESTER EDP 100 ml spray,815,Не указано,Главная > Парфюмерия > Мужская парфюмерия > Charriol > Royal Platinum TESTER EDP 100 ml spray,70824,Да
Royal Platinum EDP 100 ml spray,993,Не указано,Главная > Парфюмерия > Мужская парфюмерия > Charriol > Royal Platinum EDP 100 ml spray,70822,Да
"Royal Platinum EDP vial 1,7 ml",49,Не указано,"Главная > Парфюмерия > Мужская парфюмерия > Charriol > Royal Platinum EDP vial 1,7 ml",72543,Да
Royal Leather TESTER EDP 100 ml spray,815,Не указано,Главная > Парфюмерия > Мужская парфюмерия > Charriol > Royal Leather TESTER EDP 100 ml spray,70821,Да
"Royal Leather EDP vial 1,7 ml",53,Не указано,"Главная > Парфюмерия > Мужская парфюмерия > Charriol > Royal Leather EDP vial 1,7 ml",72542,Да
