name,price,min_delivery_time,category,sku,is_avalilable
Dalissime НАБОР (2) EDT50+B/L100,733,Не указано,Главная > Парфюмерия > Парфюмерные наборы > Для женщин > Salvador Dali > Dalissime НАБОР (2) EDT50+B/L100,57073,Да
Lovely Kiss НАБОР (3) EDT100+EDT8+B/L100,1009,Не указано,Главная > Парфюмерия > Парфюмерные наборы > Для женщин > Salvador Dali > Lovely Kiss НАБОР (3) EDT100+EDT8+B/L100,74136,Да
