95.213.155.162:3001
185.31.163.179:3001
171.25.204.31:3001
109.95.211.200:3001
213.159.212.44:3001
85.195.93.187:3001
37.9.50.51:3001
193.124.179.205:3001
37.9.50.52:3001
188.42.197.68:3001
37.9.50.60:3001
37.9.50.200:3001
37.9.50.69:3001
95.213.155.162:3001
185.31.163.179:3001
171.25.204.31:3001
109.95.211.200:3001
213.159.212.44:3001
85.195.93.187:3001
37.9.50.51:3001
193.124.179.205:3001
37.9.50.52:3001
188.42.197.68:3001
37.9.50.60:3001
37.9.50.200:3001
37.9.50.69:3001
78.107.238.26:3001
80.240.212.45:3001
62.173.154.247:3001
37.9.50.72:3001
37.9.50.202:3001
78.107.238.26:3001
80.240.212.45:3001
62.173.154.247:3001
37.9.50.72:3001
37.9.50.202:3001