name,price,min_delivery_time,category,sku,is_avalilable
In The Mood For Love Tender TESTER EDT 100 ml spray,743,Не указано,Главная > Парфюмерия > Женская парфюмерия > Gianfranco Ferre > In The Mood For Love Tender TESTER EDT 100 ml spray,63606,Да
In The Mood For Love Tender EDT 50 ml spray,643,Не указано,Главная > Парфюмерия > Женская парфюмерия > Gianfranco Ferre > In The Mood For Love Tender EDT 50 ml spray,63607,Да
In The Mood For Love Tender EDT 30 ml spray,469,Не указано,Главная > Парфюмерия > Женская парфюмерия > Gianfranco Ferre > In The Mood For Love Tender EDT 30 ml spray,63602,Да
In The Mood For Love Pure EDT 100 ml spray,899,Не указано,Главная > Парфюмерия > Женская парфюмерия > Gianfranco Ferre > In The Mood For Love Pure EDT 100 ml spray,59771,Да
In The Mood For Love Pure TESTER EDT 100 ml spray,743,Не указано,Главная > Парфюмерия > Женская парфюмерия > Gianfranco Ferre > In The Mood For Love Pure TESTER EDT 100 ml spray,59770,Да
In The Mood For Love Pure EDT 50 ml spray,643,Не указано,Главная > Парфюмерия > Женская парфюмерия > Gianfranco Ferre > In The Mood For Love Pure EDT 50 ml spray,59768,Да
In The Mood For Love Pure EDT 30 ml spray,469,Не указано,Главная > Парфюмерия > Женская парфюмерия > Gianfranco Ferre > In The Mood For Love Pure EDT 30 ml spray,59772,Да
Ferre Rose Princesse TESTER EDT 100 ml spray,790,Не указано,Главная > Парфюмерия > Женская парфюмерия > Gianfranco Ferre > Ferre Rose Princesse TESTER EDT 100 ml spray,55467,Да
Ferre Rose Princesse EDT 50 ml spray,727,Не указано,Главная > Парфюмерия > Женская парфюмерия > Gianfranco Ferre > Ferre Rose Princesse EDT 50 ml spray,55466,Да
In The Mood For Love TESTER EDP 100 ml spray,775,Не указано,Главная > Парфюмерия > Женская парфюмерия > Gianfranco Ferre > In The Mood For Love TESTER EDP 100 ml spray,55807,Да
In The Mood For Love EDP 50 ml spray,710,Не указано,Главная > Парфюмерия > Женская парфюмерия > Gianfranco Ferre > In The Mood For Love EDP 50 ml spray,55806,Да
In The Mood For Love EDP 30 ml spray,533,Не указано,Главная > Парфюмерия > Женская парфюмерия > Gianfranco Ferre > In The Mood For Love EDP 30 ml spray,55808,Да
Ferre Rose TESTER EDT 100 ml spray,695,Не указано,Главная > Парфюмерия > Женская парфюмерия > Gianfranco Ferre > Ferre Rose TESTER EDT 100 ml spray,52566,Да
Ferre Rose EDT 50 ml spray,663,Не указано,Главная > Парфюмерия > Женская парфюмерия > Gianfranco Ferre > Ferre Rose EDT 50 ml spray,52561,Да
Ferre Rose EDT 30 ml spray,469,Не указано,Главная > Парфюмерия > Женская парфюмерия > Gianfranco Ferre > Ferre Rose EDT 30 ml spray,52563,Да
