name,price,min_delivery_time,category,sku,is_avalilable
VC&A POUR HOMME EDT 100 ml spray,1003,Не указано,Главная > Парфюмерия > Мужская парфюмерия > Van Cleef&Arpels > VC&A POUR HOMME EDT 100 ml spray,79584,Да
Van Cleef & Arpels pour Homme EDT 50 ml spray,785,Не указано,Главная > Парфюмерия > Мужская парфюмерия > Van Cleef&Arpels > Van Cleef & Arpels pour Homme EDT 50 ml spray,68032,Да
Midnight in Paris EDT 125 ml spray,973,Не указано,Главная > Парфюмерия > Мужская парфюмерия > Van Cleef&Arpels > Midnight in Paris EDT 125 ml spray,59615,Да
Midnight in Paris EDT 75 ml spray,729,Не указано,Главная > Парфюмерия > Мужская парфюмерия > Van Cleef&Arpels > Midnight in Paris EDT 75 ml spray,59616,Да
Tsar EDT 100 ml spray,807,Не указано,Главная > Парфюмерия > Мужская парфюмерия > Van Cleef&Arpels > Tsar EDT 100 ml spray,51209,Да
