name,price,min_delivery_time,category,sku,is_avalilable
DAVID YURMAN DELICATE ESSENCE EDT 100 ml spray,2963,Не указано,Главная > Парфюмерия > Женская парфюмерия > David Yurman > DAVID YURMAN DELICATE ESSENCE EDT 100 ml spray,66311,Да
DAVID YURMAN TESTER EDP 75 ml spray,2025,Не указано,Главная > Парфюмерия > Женская парфюмерия > David Yurman > DAVID YURMAN TESTER EDP 75 ml spray,74959,Да
David Yurman EDP 75 ml spray,2725,Не указано,Главная > Парфюмерия > Женская парфюмерия > David Yurman > David Yurman EDP 75 ml spray,59973,Да
David Yurman EDP 50 ml spray,1919,Не указано,Главная > Парфюмерия > Женская парфюмерия > David Yurman > David Yurman EDP 50 ml spray,59972,Да
