name,price,min_delivery_time,category,sku,is_avalilable
Red Sin EDP 50 ml spray,553,Не указано,Главная > Парфюмерия > Женская парфюмерия > Christina Aguilera > Red Sin EDP 50 ml spray,79679,Да
Red Sin TESTER EDP 50 ml spray,470,Не указано,Главная > Парфюмерия > Женская парфюмерия > Christina Aguilera > Red Sin TESTER EDP 50 ml spray,73405,Да
Red Sin EDP 30 ml spray,407,Не указано,Главная > Парфюмерия > Женская парфюмерия > Christina Aguilera > Red Sin EDP 30 ml spray,71276,Да
Christina Aguilera Secret Potion EDP 30 ml spray,519,Не указано,Главная > Парфюмерия > Женская парфюмерия > Christina Aguilera > Christina Aguilera Secret Potion EDP 30 ml spray,64708,Да
Christina Aguilera Royal Desire TESTER EDP 50 ml spray,430,Не указано,Главная > Парфюмерия > Женская парфюмерия > Christina Aguilera > Christina Aguilera Royal Desire TESTER EDP 50 ml spray,60136,Да
Christina Aguilera By Night EDP 30 ml spray,460,Не указано,Главная > Парфюмерия > Женская парфюмерия > Christina Aguilera > Christina Aguilera By Night EDP 30 ml spray,57645,Да
Christina Aguilera By Night EDP 15 ml spray,369,Не указано,Главная > Парфюмерия > Женская парфюмерия > Christina Aguilera > Christina Aguilera By Night EDP 15 ml spray,57643,Да
Christina Aguilera For Women EDP 75 ml spray,833,Не указано,Главная > Парфюмерия > Женская парфюмерия > Christina Aguilera > Christina Aguilera For Women EDP 75 ml spray,55508,Да
Christina Aguilera For Women EDP 30 ml spray,469,Не указано,Главная > Парфюмерия > Женская парфюмерия > Christina Aguilera > Christina Aguilera For Women EDP 30 ml spray,55509,Да
