name,price,min_delivery_time,category,sku,is_avalilable
Mexx Fresh Man TESTER EDT 75 ml spray,395,Не указано,Главная > Парфюмерия > Мужская парфюмерия > Mexx > Mexx Fresh Man TESTER EDT 75 ml spray,67845,Да
Mexx Fresh Man EDT 50 ml spray,469,Не указано,Главная > Парфюмерия > Мужская парфюмерия > Mexx > Mexx Fresh Man EDT 50 ml spray,66416,Да
Mexx Fresh Man EDT 30 ml spray,353,Не указано,Главная > Парфюмерия > Мужская парфюмерия > Mexx > Mexx Fresh Man EDT 30 ml spray,66415,Да
Mexx Pure for Him TESTER EDT 75 ml spray,395,Не указано,Главная > Парфюмерия > Мужская парфюмерия > Mexx > Mexx Pure for Him TESTER EDT 75 ml spray,72411,Да
Mexx Pure for Him EDT 50 ml spray,503,Не указано,Главная > Парфюмерия > Мужская парфюмерия > Mexx > Mexx Pure for Him EDT 50 ml spray,67853,Да
Mexx Pure for Him EDT 30 ml spray,353,Не указано,Главная > Парфюмерия > Мужская парфюмерия > Mexx > Mexx Pure for Him EDT 30 ml spray,67852,Да
Mexx Magnetic Man EDT 75 ml spray,553,Не указано,Главная > Парфюмерия > Мужская парфюмерия > Mexx > Mexx Magnetic Man EDT 75 ml spray,63999,Да
Mexx Man TESTER EDT 75 ml spray,395,Не указано,Главная > Парфюмерия > Мужская парфюмерия > Mexx > Mexx Man TESTER EDT 75 ml spray,59268,Да
Mexx Man EDT 50 ml spray,447,Не указано,Главная > Парфюмерия > Мужская парфюмерия > Mexx > Mexx Man EDT 50 ml spray,59271,Да
Mexx Man EDT 30 ml spray,303,Не указано,Главная > Парфюмерия > Мужская парфюмерия > Mexx > Mexx Man EDT 30 ml spray,59270,Да
Mexx Black for Him EDT 50 ml spray,501,Не указано,Главная > Парфюмерия > Мужская парфюмерия > Mexx > Mexx Black for Him EDT 50 ml spray,55859,Да
MEXX ICE TOUCH MEN 2014 TESTER EDT 50 ml spray,387,Не указано,Главная > Парфюмерия > Мужская парфюмерия > Mexx > MEXX ICE TOUCH MEN 2014 TESTER EDT 50 ml spray,80245,Да
MEXX ICE TOUCH MEN 2014 EDT 50 ml spray,519,Не указано,Главная > Парфюмерия > Мужская парфюмерия > Mexx > MEXX ICE TOUCH MEN 2014 EDT 50 ml spray,80244,Да
Mexx Ice Touch Man EDT 50 ml spray,453,Не указано,Главная > Парфюмерия > Мужская парфюмерия > Mexx > Mexx Ice Touch Man EDT 50 ml spray,57671,Да
Mexx Ice Touch Man EDT 30 ml spray,339,Не указано,Главная > Парфюмерия > Мужская парфюмерия > Mexx > Mexx Ice Touch Man EDT 30 ml spray,57669,Да
Energizing Man EDT 50 ml spray,430,Не указано,Главная > Парфюмерия > Мужская парфюмерия > Mexx > Energizing Man EDT 50 ml spray,76981,Да
