name,price,min_delivery_time,category,sku,is_avalilable
Amandes Orientales EDP 100 ml spray,1801,Не указано,Главная > Парфюмерия > Нишевая парфюмерия > Для женщин > Montale > Amandes Orientales EDP 100 ml spray,71136,Да
Aoud Roses Petals TESTER EDP 100 ml spray,1801,Не указано,Главная > Парфюмерия > Нишевая парфюмерия > Для женщин > Montale > Aoud Roses Petals TESTER EDP 100 ml spray,71156,Да
Aoud Roses Petals EDP 100 ml spray,1919,Не указано,Главная > Парфюмерия > Нишевая парфюмерия > Для женщин > Montale > Aoud Roses Petals EDP 100 ml spray,67862,Да
Aoud Roses Petals EDP 50 ml spray,1241,Не указано,Главная > Парфюмерия > Нишевая парфюмерия > Для женщин > Montale > Aoud Roses Petals EDP 50 ml spray,76990,Да
Aoud Shiny EDP 100 ml spray,1773,Не указано,Главная > Парфюмерия > Нишевая парфюмерия > Для женщин > Montale > Aoud Shiny EDP 100 ml spray,67863,Да
Aoud Shiny EDP 50 ml spray,1241,Не указано,Главная > Парфюмерия > Нишевая парфюмерия > Для женщин > Montale > Aoud Shiny EDP 50 ml spray,76118,Да
Crystal Aoud EDP 100 ml spray,1773,Не указано,Главная > Парфюмерия > Нишевая парфюмерия > Для женщин > Montale > Crystal Aoud EDP 100 ml spray,69748,Да
Pretty Fruity EDP 100 ml spray,3127,Не указано,Главная > Парфюмерия > Нишевая парфюмерия > Для женщин > Montale > Pretty Fruity EDP 100 ml spray,67873,Да
Rose Elixir EDP 100 ml spray,3127,Не указано,Главная > Парфюмерия > Нишевая парфюмерия > Для женщин > Montale > Rose Elixir EDP 100 ml spray,67876,Да
Roses Musk EDP 100 ml spray,1967,Не указано,Главная > Парфюмерия > Нишевая парфюмерия > Для женщин > Montale > Roses Musk EDP 100 ml spray,68977,Да
Soleil de Capri EDP 100 ml spray,3127,Не указано,Главная > Парфюмерия > Нишевая парфюмерия > Для женщин > Montale > Soleil de Capri EDP 100 ml spray,67877,Да
Velvet Flowers EDP 100 ml spray,1773,Не указано,Главная > Парфюмерия > Нишевая парфюмерия > Для женщин > Montale > Velvet Flowers EDP 100 ml spray,67879,Да
Vanilla Extasy EDP 100 ml spray,1767,Не указано,Главная > Парфюмерия > Нишевая парфюмерия > Для женщин > Montale > Vanilla Extasy EDP 100 ml spray,66428,Да
Ginger Musk EDP 100 ml spray,1731,Не указано,Главная > Парфюмерия > Нишевая парфюмерия > Для женщин > Montale > Ginger Musk EDP 100 ml spray,57292,Да
Jasmine Full EDP 100 ml spray,1773,Не указано,Главная > Парфюмерия > Нишевая парфюмерия > Для женщин > Montale > Jasmine Full EDP 100 ml spray,56952,Да
Aoud Ambre EDP 100 ml spray,1773,Не указано,Главная > Парфюмерия > Нишевая парфюмерия > Для женщин > Montale > Aoud Ambre EDP 100 ml spray,55636,Да
MONTALE BOISE VANILLE EDP 100 ml spray,1583,Не указано,Главная > Montale > MONTALE BOISE VANILLE EDP 100 ml spray,79335,Да
Boise Vanille EDP 100 ml spray,1773,Не указано,Главная > Montale > Boise Vanille EDP 100 ml spray,56905,Да
Aoud Queen Roses TESTER EDP 100 ml spray,1625,Не указано,Главная > Парфюмерия > Нишевая парфюмерия > Для женщин > Montale > Aoud Queen Roses TESTER EDP 100 ml spray,71709,Да
Aoud Queen Roses EDP 100 ml spray,1773,Не указано,Главная > Парфюмерия > Нишевая парфюмерия > Для женщин > Montale > Aoud Queen Roses EDP 100 ml spray,56796,Да
Aoud Queen Roses EDP 50 ml spray,1241,Не указано,Главная > Парфюмерия > Нишевая парфюмерия > Для женщин > Montale > Aoud Queen Roses EDP 50 ml spray,76117,Да
Aoud Damascus EDP 100 ml spray,1773,Не указано,Главная > Парфюмерия > Нишевая парфюмерия > Для женщин > Montale > Aoud Damascus EDP 100 ml spray,56899,Да
Chypre Vanille EDP 100 ml spray,1370,Не указано,Главная > Парфюмерия > Нишевая парфюмерия > Для женщин > Montale > Chypre Vanille EDP 100 ml spray,67865,Да
White Aoud EDP 100 ml spray,1773,Не указано,Главная > Парфюмерия > Нишевая парфюмерия > Для женщин > Montale > White Aoud EDP 100 ml spray,57296,Да
Attar EDP 100 ml spray,1773,Не указано,Главная > Montale > Attar EDP 100 ml spray,60154,Да
MONTALE ATTAR EDP 50 ml spray,1241,Не указано,Главная > Montale > MONTALE ATTAR EDP 50 ml spray,77874,Да
Powder Flowers EDP 100 ml spray,1773,Не указано,Главная > Парфюмерия > Нишевая парфюмерия > Для женщин > Montale > Powder Flowers EDP 100 ml spray,60156,Да
Sandflowers EDP 100 ml spray,3127,Не указано,Главная > Парфюмерия > Нишевая парфюмерия > Для женщин > Montale > Sandflowers EDP 100 ml spray,60345,Да
Aoud Forest EDP 100 ml spray,1773,Не указано,Главная > Парфюмерия > Нишевая парфюмерия > Для женщин > Montale > Aoud Forest EDP 100 ml spray,73593,Да
Aoud Safran EDT 100 ml spray,1773,Не указано,Главная > Парфюмерия > Нишевая парфюмерия > Для женщин > Montale > Aoud Safran EDT 100 ml spray,71162,Да
Amber & Spices EDP 100 ml spray,1773,Не указано,Главная > Парфюмерия > Нишевая парфюмерия > Для женщин > Montale > Amber & Spices EDP 100 ml spray,68970,Да
Musk To Musk EDP 100 ml spray,1773,Не указано,Главная > Парфюмерия > Нишевая парфюмерия > Для женщин > Montale > Musk To Musk EDP 100 ml spray,73480,Да
Sweet Oriental Dream EDP 100 ml spray,1773,Не указано,Главная > Парфюмерия > Нишевая парфюмерия > Для женщин > Montale > Sweet Oriental Dream EDP 100 ml spray,71220,Да
Blue Amber EDP 100 ml spray,1773,Не указано,Главная > Парфюмерия > Нишевая парфюмерия > Для женщин > Montale > Blue Amber EDP 100 ml spray,71171,Да
Blue Amber EDP 50 ml spray,1241,Не указано,Главная > Парфюмерия > Нишевая парфюмерия > Для женщин > Montale > Blue Amber EDP 50 ml spray,76122,Да
Crystal Flowers EDP 100 ml spray,1939,Не указано,Главная > Парфюмерия > Нишевая парфюмерия > Для женщин > Montale > Crystal Flowers EDP 100 ml spray,67866,Да
Oriental Flowers EDP 100 ml spray,1827,Не указано,Главная > Парфюмерия > Нишевая парфюмерия > Для женщин > Montale > Oriental Flowers EDP 100 ml spray,72721,Да
Wild Pears EDP 100 ml spray,1735,Не указано,Главная > Парфюмерия > Нишевая парфюмерия > Для женщин > Montale > Wild Pears EDP 100 ml spray,67880,Да
Mukhallat EDP 100 ml spray,3127,Не указано,Главная > Парфюмерия > Нишевая парфюмерия > Для женщин > Montale > Mukhallat EDP 100 ml spray,73606,Да
Aoud Purple Rose EDP 100 ml spray,3127,Не указано,Главная > Парфюмерия > Нишевая парфюмерия > Для женщин > Montale > Aoud Purple Rose EDP 100 ml spray,75061,Да
Sunset Flowers EDP 100 ml spray,3127,Не указано,Главная > Парфюмерия > Нишевая парфюмерия > Для женщин > Montale > Sunset Flowers EDP 100 ml spray,66427,Да
White Musk EDP 100 ml spray,1773,Не указано,Главная > Парфюмерия > Нишевая парфюмерия > Для женщин > Montale > White Musk EDP 100 ml spray,66429,Да
Aoud Amber Rose EDP 100 ml spray,1583,Не указано,Главная > Парфюмерия > Нишевая парфюмерия > Для женщин > Montale > Aoud Amber Rose EDP 100 ml spray,66421,Да
Aoud Amber Rose EDP 50 ml spray,1443,Не указано,Главная > Парфюмерия > Нишевая парфюмерия > Для женщин > Montale > Aoud Amber Rose EDP 50 ml spray,76111,Да
Boise Fruite TESTER EDP 100 ml spray,1591,Не указано,Главная > Парфюмерия > Нишевая парфюмерия > Для женщин > Montale > Boise Fruite TESTER EDP 100 ml spray,73597,Да
Boise Fruite EDP 100 ml spray,1773,Не указано,Главная > Парфюмерия > Нишевая парфюмерия > Для женщин > Montale > Boise Fruite EDP 100 ml spray,67864,Да
Pure Gold EDP 100 ml spray,1773,Не указано,Главная > Парфюмерия > Нишевая парфюмерия > Для женщин > Montale > Pure Gold EDP 100 ml spray,67874,Да
Mango Manga EDP 100 ml spray,3127,Не указано,Главная > Парфюмерия > Нишевая парфюмерия > Для женщин > Montale > Mango Manga EDP 100 ml spray,67872,Да
Aoud Blossom EDP 100 ml spray,1773,Не указано,Главная > Парфюмерия > Нишевая парфюмерия > Для женщин > Montale > Aoud Blossom EDP 100 ml spray,71144,Да
Aoud Blossom EDP 50 ml spray,1241,Не указано,Главная > Парфюмерия > Нишевая парфюмерия > Для женщин > Montale > Aoud Blossom EDP 50 ml spray,76113,Да
Taif Roses EDP 100 ml spray,1827,Не указано,Главная > Парфюмерия > Нишевая парфюмерия > Для женщин > Montale > Taif Roses EDP 100 ml spray,71224,Да
Taif Roses EDP 50 ml spray,1329,Не указано,Главная > Парфюмерия > Нишевая парфюмерия > Для женщин > Montale > Taif Roses EDP 50 ml spray,76147,Да
Original Aouds EDP 100 ml spray,3127,Не указано,Главная > Парфюмерия > Нишевая парфюмерия > Для женщин > Montale > Original Aouds EDP 100 ml spray,71713,Да
Deep Roses EDP 100 ml spray,1773,Не указано,Главная > Парфюмерия > Нишевая парфюмерия > Для женщин > Montale > Deep Roses EDP 100 ml spray,73478,Да
Chocolate Greedy EDP 100 ml spray,3127,Не указано,Главная > Парфюмерия > Нишевая парфюмерия > Для женщин > Montale > Chocolate Greedy EDP 100 ml spray,66422,Да
Chypre Fruite EDP 100 ml spray,1767,Не указано,Главная > Парфюмерия > Нишевая парфюмерия > Для женщин > Montale > Chypre Fruite EDP 100 ml spray,72424,Да
Aoud Velvet  EDP 100 ml spray,3127,Не указано,Главная > Парфюмерия > Нишевая парфюмерия > Для женщин > Montale > Aoud Velvet  EDP 100 ml spray,72478,Да
