name,price,min_delivery_time,category,sku,is_avalilable
Zen Night Flower/Purple EDP 50 ml spray Limited Edition,1307,Не указано,Главная > Парфюмерия > Женская парфюмерия > Shiseido > Zen Night Flower/Purple EDP 50 ml spray Limited Edition,57485,Да
Shiseido Zen 2007 TESTER EDP 100 ml spray,1817,Не указано,Главная > Парфюмерия > Женская парфюмерия > Shiseido > Shiseido Zen 2007 TESTER EDP 100 ml spray,53428,Да
Shiseido Zen 2007 EDP 100 ml spray,1579,Не указано,Главная > Парфюмерия > Женская парфюмерия > Shiseido > Shiseido Zen 2007 EDP 100 ml spray,53427,Да
Shiseido Zen 2007 EDP 50 ml spray,1179,Не указано,Главная > Парфюмерия > Женская парфюмерия > Shiseido > Shiseido Zen 2007 EDP 50 ml spray,53424,Да
Shiseido Zen 2007 EDP 30 ml spray,785,Не указано,Главная > Парфюмерия > Женская парфюмерия > Shiseido > Shiseido Zen 2007 EDP 30 ml spray,53426,Да
