name,price,min_delivery_time,category,sku,is_avalilable
Art & Gold & Perfume EDP 75 ml spray,3833,Не указано,Главная > Парфюмерия > Нишевая парфюмерия > Для женщин > Ramon Molvizar > Art & Gold & Perfume EDP 75 ml spray,67943,Да
Art & Silver & Perfume EDP 75 ml spray,3833,Не указано,Главная > Парфюмерия > Нишевая парфюмерия > Для женщин > Ramon Molvizar > Art & Silver & Perfume EDP 75 ml spray,67944,Да
Sol Sun EDP 100 ml spray,2993,Не указано,Главная > Парфюмерия > Нишевая парфюмерия > Для женщин > Ramon Molvizar > Sol Sun EDP 100 ml spray,67952,Да
Smart Goldskin EDP 75 ml spray,2335,Не указано,Главная > Парфюмерия > Нишевая парфюмерия > Для женщин > Ramon Molvizar > Smart Goldskin EDP 75 ml spray,67951,Да
