name,price,min_delivery_time,category,sku,is_avalilable
Le Male Terrible EDT 75 ml spray,871,Не указано,Главная > Парфюмерия > Мужская парфюмерия > Jean Paul Gaultier > Le Male Terrible EDT 75 ml spray,60638,Да
Kokorico TESTER EDT 100 ml spray,759,Не указано,Главная > Парфюмерия > Мужская парфюмерия > Jean Paul Gaultier > Kokorico TESTER EDT 100 ml spray,71311,Да
Kokorico EDT 100 ml spray,1055,Не указано,Главная > Парфюмерия > Мужская парфюмерия > Jean Paul Gaultier > Kokorico EDT 100 ml spray,67715,Да
Le Male TESTER EDT 125 ml spray,871,Не указано,Главная > Парфюмерия > Мужская парфюмерия > Jean Paul Gaultier > Le Male TESTER EDT 125 ml spray,69248,Да
Le Male EDT 125 ml spray,1327,Не указано,Главная > Парфюмерия > Мужская парфюмерия > Jean Paul Gaultier > Le Male EDT 125 ml spray,53767,Да
Le Male EDT 75 ml spray,929,Не указано,Главная > Парфюмерия > Мужская парфюмерия > Jean Paul Gaultier > Le Male EDT 75 ml spray,53765,Да
LE MALE Limeted edition EDT 40 ml spray,783,Не указано,Главная > Парфюмерия > Мужская парфюмерия > Jean Paul Gaultier > LE MALE Limeted edition EDT 40 ml spray,78377,Да
Le Male EDT 40 ml spray,647,Не указано,Главная > Парфюмерия > Мужская парфюмерия > Jean Paul Gaultier > Le Male EDT 40 ml spray,53768,Да
LE MALE TERRIBLE EXTREME EDT 125 ml spray,1043,Не указано,Главная > Jean Paul Gaultier > LE MALE TERRIBLE EXTREME EDT 125 ml spray,78378,Да
Le Beau Male EDT 75 ml spray,895,Не указано,Главная > Парфюмерия > Мужская парфюмерия > Jean Paul Gaultier > Le Beau Male EDT 75 ml spray,72378,Да
