name,price,min_delivery_time,category,sku,is_avalilable
Jimmy Choo For Woman Eau De Parfum EDP 100 ml spray,957,Не указано,Главная > Парфюмерия > Женская парфюмерия > Jimmy Choo > Jimmy Choo For Woman Eau De Parfum EDP 100 ml spray,67720,Да
Jimmy Choo For Woman Eau De Parfum EDP 60 ml spray,710,Не указано,Главная > Парфюмерия > Женская парфюмерия > Jimmy Choo > Jimmy Choo For Woman Eau De Parfum EDP 60 ml spray,66377,Да
Jimmy Choo For Woman Eau De Parfum EDP 40 ml spray,533,Не указано,Главная > Парфюмерия > Женская парфюмерия > Jimmy Choo > Jimmy Choo For Woman Eau De Parfum EDP 40 ml spray,63035,Да
"Jimmy Choo For Woman Eau De Parfum EDP mini 4,5 ml",143,Не указано,"Главная > Парфюмерия > Женская парфюмерия > Jimmy Choo > Jimmy Choo For Woman Eau De Parfum EDP mini 4,5 ml",67721,Да
Jimmy Choo For Woman Eau De Toilette EDT 100 ml spray,871,Не указано,Главная > Парфюмерия > Женская парфюмерия > Jimmy Choo > Jimmy Choo For Woman Eau De Toilette EDT 100 ml spray,63032,Да
Jimmy Choo For Woman Eau De Toilette TESTER EDT 100 ml spray,649,Не указано,Главная > Парфюмерия > Женская парфюмерия > Jimmy Choo > Jimmy Choo For Woman Eau De Toilette TESTER EDT 100 ml spray,63026,Да
Jimmy Choo For Woman Eau De Toilette EDT 60 ml spray,581,Не указано,Главная > Парфюмерия > Женская парфюмерия > Jimmy Choo > Jimmy Choo For Woman Eau De Toilette EDT 60 ml spray,63031,Да
Jimmy Choo For Woman Eau De Toilette EDT 40 ml spray,419,Не указано,Главная > Парфюмерия > Женская парфюмерия > Jimmy Choo > Jimmy Choo For Woman Eau De Toilette EDT 40 ml spray,63030,Да
"Jimmy Choo For Woman Eau De Toilette EDT mini 4,5 ml",139,Не указано,"Главная > Парфюмерия > Женская парфюмерия > Jimmy Choo > Jimmy Choo For Woman Eau De Toilette EDT mini 4,5 ml",63028,Да
Flash TESTER EDP 100 ml spray,973,Не указано,Главная > Парфюмерия > Женская парфюмерия > Jimmy Choo > Flash TESTER EDP 100 ml spray,74729,Да
Flash EDP 100 ml spray,865,Не указано,Главная > Парфюмерия > Женская парфюмерия > Jimmy Choo > Flash EDP 100 ml spray,74725,Да
Flash EDP 60 ml spray,631,Не указано,Главная > Парфюмерия > Женская парфюмерия > Jimmy Choo > Flash EDP 60 ml spray,74728,Да
Flash EDP 40 ml spray,497,Не указано,Главная > Парфюмерия > Женская парфюмерия > Jimmy Choo > Flash EDP 40 ml spray,74727,Да
Flash London Club TESTER EDP 100 ml spray,1063,Не указано,Главная > Парфюмерия > Женская парфюмерия > Jimmy Choo > Flash London Club TESTER EDP 100 ml spray,77781,Да
