name,price,min_delivery_time,category,sku,is_avalilable
Amor Amor TESTER EDT 100 ml spray,899,Не указано,Главная > Парфюмерия > Женская парфюмерия > Cacharel > Amor Amor TESTER EDT 100 ml spray,48282,Да
Amor Amor EDT 100 ml spray,1337,Не указано,Главная > Парфюмерия > Женская парфюмерия > Cacharel > Amor Amor EDT 100 ml spray,48281,Да
Amor Amor EDT 50 ml spray,823,Не указано,Главная > Парфюмерия > Женская парфюмерия > Cacharel > Amor Amor EDT 50 ml spray,48271,Да
Amor Amor EDT 30 ml spray,597,Не указано,Главная > Парфюмерия > Женская парфюмерия > Cacharel > Amor Amor EDT 30 ml spray,48274,Да
Promesse TESTER EDT 50 ml spray,1327,Не указано,Главная > Парфюмерия > Женская парфюмерия > Cacharel > Promesse TESTER EDT 50 ml spray,48349,Да
Promesse EDT 50 ml spray,1473,Не указано,Главная > Парфюмерия > Женская парфюмерия > Cacharel > Promesse EDT 50 ml spray,48346,Да
Noa EDT 100 ml spray,1135,Не указано,Главная > Парфюмерия > Женская парфюмерия > Cacharel > Noa EDT 100 ml spray,48298,Да
Noa EDT 50 ml spray,885,Не указано,Главная > Парфюмерия > Женская парфюмерия > Cacharel > Noa EDT 50 ml spray,48300,Да
Anais Anais TESTER EDT 100 ml spray,1185,Не указано,Главная > Парфюмерия > Женская парфюмерия > Cacharel > Anais Anais TESTER EDT 100 ml spray,48049,Да
Amor Amor in a Flash EDT 50 ml spray,899,Не указано,Главная > Парфюмерия > Женская парфюмерия > Cacharel > Amor Amor in a Flash EDT 50 ml spray,75801,Да
CACHAREL AMOR AMOR FORBIDDEN KISS EDT 100 ml spray,1343,Не указано,Главная > Парфюмерия > Женская парфюмерия > Cacharel > CACHAREL AMOR AMOR FORBIDDEN KISS EDT 100 ml spray,77548,Да
Amor Amor Forbidden Kiss EDT 50 ml spray,913,Не указано,Главная > Парфюмерия > Женская парфюмерия > Cacharel > Amor Amor Forbidden Kiss EDT 50 ml spray,70588,Да
Eden EDP 50 ml spray,831,Не указано,Главная > Парфюмерия > Женская парфюмерия > Cacharel > Eden EDP 50 ml spray,48332,Да
Lou Lou EDP 50 ml spray,797,Не указано,Главная > Парфюмерия > Женская парфюмерия > Cacharel > Lou Lou EDP 50 ml spray,48335,Да
Lou Lou  EDP 30 ml spray,555,Не указано,Главная > Парфюмерия > Женская парфюмерия > Cacharel > Lou Lou  EDP 30 ml spray,48333,Да
Catch Me EDP 80 ml spray,1817,Не указано,Главная > Парфюмерия > Женская парфюмерия > Cacharel > Catch Me EDP 80 ml spray,72244,Да
Catch Me EDP 50 ml spray,533,Не указано,Главная > Парфюмерия > Женская парфюмерия > Cacharel > Catch Me EDP 50 ml spray,74515,Да
Catch Me EDP 30 ml spray,957,Не указано,Главная > Парфюмерия > Женская парфюмерия > Cacharel > Catch Me EDP 30 ml spray,72243,Да
