name,price,min_delivery_time,category,sku,is_avalilable
Polo Black TESTER EDT 125 ml spray,1439,Не указано,Главная > Парфюмерия > Мужская парфюмерия > Ralph Lauren > Polo Black TESTER EDT 125 ml spray,63622,Да
Polo Blue Sport EDT 75 ml spray,930,Не указано,Главная > Парфюмерия > Мужская парфюмерия > Ralph Lauren > Polo Blue Sport EDT 75 ml spray,77023,Да
